%!PS-Adobe-3.0
%%BoundingBox: 0 0 595 842
%%HiResBoundingBox: 0 0 595 842             
%%Title: GMT v5.4.2 (r18461) [64-bit] [MP] Document from psvelo
%%Creator: GMT5
%%For: unknown
%%DocumentNeededResources: font Helvetica
%%CreationDate: Tue Mar  5 16:15:13 2019
%%LanguageLevel: 2
%%DocumentData: Clean7Bit
%%Orientation: Landscape
%%Pages: 1
%%EndComments

%%BeginProlog
250 dict begin
/! {bind def} bind def
/# {load def}!
/A /setgray #
/B /setdash #
/C /setrgbcolor #
/D /rlineto #
/E {dup stringwidth pop}!
/F /fill #
/G /rmoveto #
/H /sethsbcolor #
/I /setpattern #
/K /setcmykcolor #
/L /lineto #
/M /moveto #
/N /newpath #
/P /closepath #
/R /rotate #
/S /stroke #
/T /translate #
/U /grestore #
/V /gsave #
/W /setlinewidth #
/Y {findfont exch scalefont setfont}!
/Z /show #
/FP {true charpath flattenpath}!
/MU {matrix setmatrix}!
/MS {/SMat matrix currentmatrix def}!
/MR {SMat setmatrix}!
/edef {exch def}!
/FS {/fc edef /fs {V fc F U} def}!
/FQ {/fs {} def}!
/O0 {/os {N} def}!
/O1 {/os {P S} def}!
/FO {fs os}!
/Sa {M MS dup 0 exch G 0.726542528 mul -72 R dup 0 D 4 {72 R dup 0 D -144 R dup 0 D} repeat pop MR FO}!
/Sb {M dup 0 D exch 0 exch D neg 0 D FO}!
/SB {MS T /BoxR edef /BoxW edef /BoxH edef BoxR 0 M
  BoxW 0 BoxW BoxH BoxR arct BoxW BoxH 0 BoxH BoxR arct 0 BoxH 0 0 BoxR arct 0 0 BoxW 0 BoxR arct MR FO}!
/Sc {N 3 -1 roll 0 360 arc FO}!
/Sd {M 4 {dup} repeat 0 G neg dup dup D exch D D FO}!
/Se {N MS T R scale 0 0 1 0 360 arc MR FO}!
/Sg {M MS 22.5 R dup 0 exch G -22.5 R 0.765366865 mul dup 0 D 6 {-45 R dup 0 D} repeat pop MR FO}!
/Sh {M MS dup 0 G -120 R dup 0 D 4 {-60 R dup 0 D} repeat pop MR FO}!
/Si {M MS dup neg 0 exch G 60 R 1.732050808 mul dup 0 D 120 R 0 D MR FO}!
/Sj {M MS R dup -2 div 2 index -2 div G dup 0 D exch 0 exch D neg 0 D MR FO}!
/Sn {M MS dup 0 exch G -36 R 1.175570505 mul dup 0 D 3 {-72 R dup 0 D} repeat pop MR FO}!
/Sp {N 3 -1 roll 0 360 arc fs N}!
/SP {M {D} repeat FO}!
/Sr {M dup -2 div 2 index -2 div G dup 0 D exch 0 exch D neg 0 D FO}!
/SR {MS T /BoxR edef /BoxW edef /BoxH edef BoxR BoxW -2 div BoxH -2 div T BoxR 0 M
  BoxW 0 BoxW BoxH BoxR arct BoxW BoxH 0 BoxH BoxR arct 0 BoxH 0 0 BoxR arct 0 0 BoxW 0 BoxR arct MR FO}!
/Ss {M 1.414213562 mul dup dup dup -2 div dup G 0 D 0 exch D neg 0 D FO}!
/St {M MS dup 0 exch G -60 R 1.732050808 mul dup 0 D -120 R 0 D MR FO}!
/SV {0 exch M 0 D D D D D 0 D FO}!
/Sv {0 0 M D D 0 D D D D D 0 D D FO}!
/Sw {2 copy M 5 2 roll arc FO}!
/Sx {M 1.414213562 mul 5 {dup} repeat -2 div dup G D neg 0 G neg D S}!
/Sy {M dup 0 exch G dup -2 mul dup 0 exch D S}!
/S+ {M dup 0 G dup -2 mul dup 0 D exch dup G 0 exch D S}!
/S- {M dup 0 G dup -2 mul dup 0 D S}!
/sw {stringwidth pop}!
/sh {V MU 0 0 M FP pathbbox N 4 1 roll pop pop pop U}!
/sd {V MU 0 0 M FP pathbbox N pop pop exch pop U}!
/sH {V MU 0 0 M FP pathbbox N exch pop exch sub exch pop U}!
/sb {E exch sh}!
/bl {}!
/bc {E -2 div 0 G}!
/br {E neg 0 G}!
/ml {dup 0 exch sh -2 div G}!
/mc {dup E -2 div exch sh -2 div G}!
/mr {dup E neg exch sh -2 div G}!
/tl {dup 0 exch sh neg G}!
/tc {dup E -2 div exch sh neg G}!
/tr {dup E neg exch sh neg G}!
/mx {2 copy lt {exch} if pop}!
/PSL_xorig 0 def /PSL_yorig 0 def
/TM {2 copy T PSL_yorig add /PSL_yorig edef PSL_xorig add /PSL_xorig edef}!
/PSL_reencode {findfont dup length dict begin
  {1 index /FID ne {def}{pop pop} ifelse} forall
  exch /Encoding edef currentdict end definefont pop
}!
/PSL_eps_begin {
  /PSL_eps_state save def
  /PSL_dict_count countdictstack def
  /PSL_op_count count 1 sub def
  userdict begin
  /showpage {} def
  0 setgray 0 setlinecap 1 setlinewidth
  0 setlinejoin 10 setmiterlimit [] 0 setdash newpath
  /languagelevel where
  {pop languagelevel 1 ne {false setstrokeadjust false setoverprint} if} if
}!
/PSL_eps_end {
  count PSL_op_count sub {pop} repeat
  countdictstack PSL_dict_count sub {end} repeat
  PSL_eps_state restore
}!
/PSL_transp {
  /.setopacityalpha where {pop .setblendmode .setopacityalpha}{
  /pdfmark where {pop [ /BM exch /CA exch dup /ca exch /SetTransparency pdfmark}
  {pop pop} ifelse} ifelse
}!
/ISOLatin1+_Encoding [
/.notdef	/.notdef	/.notdef	/.notdef	/.notdef	/.notdef	/.notdef	/.notdef
/.notdef	/.notdef	/.notdef	/.notdef	/.notdef	/.notdef	/.notdef	/.notdef
/.notdef	/.notdef	/.notdef	/.notdef	/.notdef	/.notdef	/.notdef	/.notdef
/.notdef	/bullet		/ellipsis	/trademark	/emdash		/endash		/fi		/zcaron
/space		/exclam		/quotedbl	/numbersign	/dollar		/percent	/ampersand	/quoteright
/parenleft	/parenright	/asterisk	/plus		/comma		/minus		/period		/slash
/zero		/one		/two		/three		/four		/five		/six		/seven
/eight		/nine		/colon		/semicolon	/less		/equal		/greater	/question
/at		/A		/B		/C		/D		/E		/F		/G
/H		/I		/J		/K		/L		/M		/N		/O
/P		/Q		/R		/S		/T		/U		/V		/W
/X		/Y		/Z		/bracketleft	/backslash	/bracketright	/asciicircum	/underscore
/quoteleft	/a		/b		/c 		/d		/e		/f		/g
/h		/i		/j		/k		/l		/m		/n		/o
/p		/q		/r		/s		/t		/u		/v		/w
/x		/y		/z		/braceleft	/bar		/braceright	/asciitilde	/scaron
/OE		/dagger		/daggerdbl	/Lslash		/fraction	/guilsinglleft	/Scaron		/guilsinglright
/oe		/Ydieresis	/Zcaron		/lslash		/perthousand	/quotedblbase	/quotedblleft	/quotedblright
/dotlessi	/grave		/acute		/circumflex	/tilde		/macron		/breve		/dotaccent
/dieresis	/quotesinglbase	/ring		/cedilla	/quotesingle	/hungarumlaut	/ogonek		/caron
/space		/exclamdown	/cent		/sterling	/currency	/yen		/brokenbar	/section
/dieresis	/copyright	/ordfeminine	/guillemotleft	/logicalnot	/hyphen		/registered	/macron
/degree		/plusminus	/twosuperior	/threesuperior	/acute		/mu		/paragraph	/periodcentered
/cedilla	/onesuperior	/ordmasculine	/guillemotright	/onequarter	/onehalf	/threequarters	/questiondown
/Agrave		/Aacute		/Acircumflex	/Atilde		/Adieresis	/Aring		/AE		/Ccedilla
/Egrave		/Eacute		/Ecircumflex	/Edieresis	/Igrave		/Iacute		/Icircumflex	/Idieresis
/Eth		/Ntilde		/Ograve		/Oacute		/Ocircumflex	/Otilde		/Odieresis	/multiply
/Oslash		/Ugrave		/Uacute		/Ucircumflex	/Udieresis	/Yacute		/Thorn		/germandbls
/agrave		/aacute		/acircumflex	/atilde		/adieresis	/aring		/ae		/ccedilla
/egrave		/eacute		/ecircumflex	/edieresis	/igrave		/iacute		/icircumflex	/idieresis
/eth		/ntilde		/ograve		/oacute		/ocircumflex	/otilde		/odieresis	/divide
/oslash		/ugrave		/uacute		/ucircumflex	/udieresis	/yacute		/thorn		/ydieresis
] def
/PSL_font_encode 0 0 0 0 0 0 0 0 0 0 0 0 0 0 0 0 0 0 0 0 0 0 0 0 0 0 0 0 0 0 0 0 0 0 0 0 0 0 0 39 array astore def
/F0 {/Helvetica Y}!
/F1 {/Helvetica-Bold Y}!
/F2 {/Helvetica-Oblique Y}!
/F3 {/Helvetica-BoldOblique Y}!
/F4 {/Times-Roman Y}!
/F5 {/Times-Bold Y}!
/F6 {/Times-Italic Y}!
/F7 {/Times-BoldItalic Y}!
/F8 {/Courier Y}!
/F9 {/Courier-Bold Y}!
/F10 {/Courier-Oblique Y}!
/F11 {/Courier-BoldOblique Y}!
/F12 {/Symbol Y}!
/F13 {/AvantGarde-Book Y}!
/F14 {/AvantGarde-BookOblique Y}!
/F15 {/AvantGarde-Demi Y}!
/F16 {/AvantGarde-DemiOblique Y}!
/F17 {/Bookman-Demi Y}!
/F18 {/Bookman-DemiItalic Y}!
/F19 {/Bookman-Light Y}!
/F20 {/Bookman-LightItalic Y}!
/F21 {/Helvetica-Narrow Y}!
/F22 {/Helvetica-Narrow-Bold Y}!
/F23 {/Helvetica-Narrow-Oblique Y}!
/F24 {/Helvetica-Narrow-BoldOblique Y}!
/F25 {/NewCenturySchlbk-Roman Y}!
/F26 {/NewCenturySchlbk-Italic Y}!
/F27 {/NewCenturySchlbk-Bold Y}!
/F28 {/NewCenturySchlbk-BoldItalic Y}!
/F29 {/Palatino-Roman Y}!
/F30 {/Palatino-Italic Y}!
/F31 {/Palatino-Bold Y}!
/F32 {/Palatino-BoldItalic Y}!
/F33 {/ZapfChancery-MediumItalic Y}!
/F34 {/ZapfDingbats Y}!
/F35 {/Ryumin-Light-EUC-H Y}!
/F36 {/Ryumin-Light-EUC-V Y}!
/F37 {/GothicBBB-Medium-EUC-H Y}!
/F38 {/GothicBBB-Medium-EUC-V Y}!
/PSL_pathtextdict 26 dict def
/PSL_pathtext
  {PSL_pathtextdict begin
    /ydepth exch def
    /textheight exch def
    /just exch def
    /offset exch def
    /str exch def
    /pathdist 0 def
    /setdist offset def
    /charcount 0 def
    /justy just 4 idiv textheight mul 2 div neg ydepth sub def
    V flattenpath
	{movetoproc} {linetoproc}
	{curvetoproc} {closepathproc}
	pathforall
    U N
    end
  } def
PSL_pathtextdict begin
/movetoproc
  { /newy exch def /newx exch def
    /firstx newx def /firsty newy def
    /ovr 0 def
    newx newy transform
    /cpy exch def /cpx exch def
  } def
/linetoproc
  { /oldx newx def /oldy newy def
    /newy exch def /newx exch def
    /dx newx oldx sub def
    /dy newy oldy sub def
    /dist dx dup mul dy dup mul add sqrt def
    dist 0 ne
    { /dsx dx dist div ovr mul def
      /dsy dy dist div ovr mul def
      oldx dsx add oldy dsy add transform
      /cpy exch def /cpx exch def
      /pathdist pathdist dist add def
      {setdist pathdist le
	  {charcount str length lt
	      {setchar} {exit} ifelse}
	  { /ovr setdist pathdist sub def
	    exit}
	  ifelse
      } loop
    } if
  } def
/curvetoproc
  { (ERROR: No curveto's after flattenpath!)
    print
  } def
/closepathproc
  {firstx firsty linetoproc
    firstx firsty movetoproc
  } def
/setchar
  { /char str charcount 1 getinterval def
    /charcount charcount 1 add def
    /charwidth char stringwidth pop def
    V cpx cpy itransform T
      dy dx atan R
      0 justy M
      char show
      0 justy neg G
      currentpoint transform
      /cpy exch def /cpx exch def
    U /setdist setdist charwidth add def
  } def
end
/PSL_set_label_heights
{
  /PSL_n_labels_minus_1 PSL_n_labels 1 sub def
  /PSL_heights PSL_n_labels array def
  0 1 PSL_n_labels_minus_1
  { /psl_k exch def
    /psl_label PSL_label_str psl_k get def
    PSL_label_font psl_k get cvx exec
    psl_label sH /PSL_height edef
    PSL_heights psl_k PSL_height put
  } for
} def
/PSL_curved_path_labels
{ /psl_bits exch def
  /PSL_placetext psl_bits 2 and 2 eq def
  /PSL_clippath psl_bits 4 and 4 eq def
  /PSL_strokeline false def
  /PSL_fillbox psl_bits 128 and 128 eq def
  /PSL_drawbox psl_bits 256 and 256 eq def
  /PSL_n_paths1 PSL_n_paths 1 sub def
  /PSL_usebox PSL_fillbox PSL_drawbox or def
  PSL_clippath {clipsave N clippath} if
  /psl_k 0 def
  /psl_p 0 def
  0 1 PSL_n_paths1
  { /psl_kk exch def
    /PSL_n PSL_path_n  psl_kk get def
    /PSL_m PSL_label_n psl_kk get def
    /PSL_x PSL_path_x psl_k PSL_n getinterval def
    /PSL_y PSL_path_y psl_k PSL_n getinterval def
    /PSL_node_tmp PSL_label_node psl_p PSL_m getinterval def
    /PSL_angle_tmp PSL_label_angle psl_p PSL_m getinterval def
    /PSL_str_tmp PSL_label_str psl_p PSL_m getinterval def
    /PSL_fnt_tmp PSL_label_font psl_p PSL_m getinterval def
    PSL_curved_path_label
    /psl_k psl_k PSL_n add def
    /psl_p psl_p PSL_m add def
  } for
  PSL_clippath {PSL_eoclip} if N
} def
/PSL_curved_path_label
{
  /PSL_n1 PSL_n 1 sub def
  /PSL_m1 PSL_m 1 sub def
  PSL_CT_calcstringwidth
  PSL_CT_calclinedist
  PSL_CT_excludelabels
  PSL_CT_addcutpoints
  /PSL_nn1 PSL_nn 1 sub def
  /n 0 def
  /k 0 def
  /j 0 def
  /PSL_seg 0 def
  /PSL_xp PSL_nn array def
  /PSL_yp PSL_nn array def
  PSL_xp 0 PSL_xx 0 get put
  PSL_yp 0 PSL_yy 0 get put
  1 1 PSL_nn1
  { /i exch def
    /node_type PSL_kind i get def
    /j j 1 add def
    PSL_xp j PSL_xx i get put
    PSL_yp j PSL_yy i get put
    node_type 1 eq
    {n 0 eq
      {PSL_CT_drawline}
      {	PSL_CT_reversepath
	PSL_CT_textline} ifelse
      /j 0 def
      PSL_xp j PSL_xx i get put
      PSL_yp j PSL_yy i get put
    } if
  } for
  n 0 eq {PSL_CT_drawline} if
} def
/PSL_CT_textline
{ PSL_fnt k get cvx exec
  /PSL_height PSL_heights k get def
  PSL_placetext	{PSL_CT_placelabel} if
  PSL_clippath {PSL_CT_clippath} if
  /n 0 def /k k 1 add def
} def
/PSL_CT_calcstringwidth
{ /PSL_width_tmp PSL_m array def
  0 1 PSL_m1
  { /i exch def
    PSL_fnt_tmp i get cvx exec
    PSL_width_tmp i PSL_str_tmp i get stringwidth pop put
  } for
} def
/PSL_CT_calclinedist
{ /PSL_newx PSL_x 0 get def
  /PSL_newy PSL_y 0 get def
  /dist 0.0 def
  /PSL_dist PSL_n array def
  PSL_dist 0 0.0 put
  1 1 PSL_n1
  { /i exch def
    /PSL_oldx PSL_newx def
    /PSL_oldy PSL_newy def
    /PSL_newx PSL_x i get def
    /PSL_newy PSL_y i get def
    /dx PSL_newx PSL_oldx sub def
    /dy PSL_newy PSL_oldy sub def
    /dist dist dx dx mul dy dy mul add sqrt add def
    PSL_dist i dist put
  } for
} def
/PSL_CT_excludelabels
{ /k 0 def
  /PSL_width PSL_m array def
  /PSL_angle PSL_m array def
  /PSL_node PSL_m array def
  /PSL_str PSL_m array def
  /PSL_fnt PSL_m array def
  /lastdist PSL_dist PSL_n1 get def
  0 1 PSL_m1
  { /i exch def
    /dist PSL_dist PSL_node_tmp i get get def
    /halfwidth PSL_width_tmp i get 2 div PSL_gap_x add def
    /L_dist dist halfwidth sub def
    /R_dist dist halfwidth add def
    L_dist 0 gt R_dist lastdist lt and
    {
      PSL_width k PSL_width_tmp i get put
      PSL_node k PSL_node_tmp i get put
      PSL_angle k PSL_angle_tmp i get put
      PSL_str k PSL_str_tmp i get put
      PSL_fnt k PSL_fnt_tmp i get put
      /k k 1 add def
    } if
  } for
  /PSL_m k def
  /PSL_m1 PSL_m 1 sub def
} def
/PSL_CT_addcutpoints
{ /k 0 def
  /PSL_nc PSL_m 2 mul 1 add def
  /PSL_cuts PSL_nc array def
  /PSL_nc1 PSL_nc 1 sub def
  0 1 PSL_m1
  { /i exch def
    /dist PSL_dist PSL_node i get get def
    /halfwidth PSL_width i get 2 div PSL_gap_x add def
    PSL_cuts k dist halfwidth sub put
    /k k 1 add def
    PSL_cuts k dist halfwidth add put
    /k k 1 add def
  } for
  PSL_cuts k 100000.0 put
  /PSL_nn PSL_n PSL_m 2 mul add def
  /PSL_xx PSL_nn array def
  /PSL_yy PSL_nn array def
  /PSL_kind PSL_nn array def
  /j 0 def
  /k 0 def
  /dist 0.0 def
  0 1 PSL_n1
  { /i exch def
    /last_dist dist def
    /dist PSL_dist i get def
    k 1 PSL_nc1
    { /kk exch def
      /this_cut PSL_cuts kk get def
      dist this_cut gt
      { /ds dist last_dist sub def
	/f ds 0.0 eq {0.0} {dist this_cut sub ds div} ifelse def
	/i1 i 0 eq {0} {i 1 sub} ifelse def
	PSL_xx j PSL_x i get dup PSL_x i1 get sub f mul sub put
	PSL_yy j PSL_y i get dup PSL_y i1 get sub f mul sub put
	PSL_kind j 1 put
	/j j 1 add def
	/k k 1 add def
      } if
    } for
    dist PSL_cuts k get le
    {PSL_xx j PSL_x i get put PSL_yy j PSL_y i get put
      PSL_kind j 0 put
      /j j 1 add def
    } if
  } for
} def
/PSL_CT_reversepath
{PSL_xp j get PSL_xp 0 get lt
  {0 1 j 2 idiv
    { /left exch def
      /right j left sub def
      /tmp PSL_xp left get def
      PSL_xp left PSL_xp right get put
      PSL_xp right tmp put
      /tmp PSL_yp left get def
      PSL_yp left PSL_yp right get put
      PSL_yp right tmp put
    } for
  } if
} def
/PSL_CT_placelabel
{
  /PSL_just PSL_label_justify k get def
  /PSL_height PSL_heights k get def
  /psl_label PSL_str k get def
  /psl_depth psl_label sd def
  PSL_usebox
  {PSL_CT_clippath
    PSL_fillbox
    {V PSL_setboxrgb fill U} if
    PSL_drawbox
    {V PSL_setboxpen S U} if N
  } if
  PSL_CT_placeline psl_label PSL_gap_x PSL_just PSL_height psl_depth PSL_pathtext
} def
/PSL_CT_clippath
{
  /H PSL_height 2 div PSL_gap_y add def
  /xoff j 1 add array def
  /yoff j 1 add array def
  /angle 0 def
  0 1 j {
    /ii exch def
    /x PSL_xp ii get def
    /y PSL_yp ii get def
    ii 0 eq {
      /x1 PSL_xp 1 get def
      /y1 PSL_yp 1 get def
      /dx x1 x sub def
      /dy y1 y sub def
    }
    { /i1 ii 1 sub def
      /x1 PSL_xp i1 get def
      /y1 PSL_yp i1 get def
      /dx x x1 sub def
      /dy y y1 sub def
    } ifelse
    dx 0.0 eq dy 0.0 eq and not
    { /angle dy dx atan 90 add def} if
    /sina angle sin def
    /cosa angle cos def
    xoff ii H cosa mul put
    yoff ii H sina mul put
  } for
  PSL_xp 0 get xoff 0 get add PSL_yp 0 get yoff 0 get add M
  1 1 j {
    /ii exch def
    PSL_xp ii get xoff ii get add PSL_yp ii get yoff ii get add L
  } for
  j -1 0 {
    /ii exch def
    PSL_xp ii get xoff ii get sub PSL_yp ii get yoff ii get sub L
  } for P
} def
/PSL_CT_drawline
{
  /str 20 string def
  PSL_strokeline
  {PSL_CT_placeline S} if
  /PSL_seg PSL_seg 1 add def
  /n 1 def
} def
/PSL_CT_placeline
{PSL_xp 0 get PSL_yp 0 get M
  1 1 j { /ii exch def PSL_xp ii get PSL_yp ii get L} for
} def
/PSL_draw_path_lines
{
  /PSL_n_paths1 PSL_n_paths 1 sub def
  V
  /psl_start 0 def
  0 1 PSL_n_paths1
  { /psl_k exch def
    /PSL_n PSL_path_n psl_k get def
    /PSL_n1 PSL_n 1 sub def
    PSL_path_pen psl_k get cvx exec
    N
    PSL_path_x psl_start get PSL_path_y psl_start get M
    1 1 PSL_n1
    { /psl_i exch def
      /psl_kk psl_i psl_start add def
      PSL_path_x psl_kk get PSL_path_y psl_kk get L
    } for
    /psl_xclose PSL_path_x psl_kk get PSL_path_x psl_start get sub def
    /psl_yclose PSL_path_y psl_kk get PSL_path_y psl_start get sub def
    psl_xclose 0 eq psl_yclose 0 eq and { P } if
    S
    /psl_start psl_start PSL_n add def
  } for
  U
} def
/PSL_straight_path_labels
{
  /psl_bits exch def
  /PSL_placetext psl_bits 2 and 2 eq def
  /PSL_rounded psl_bits 32 and 32 eq def
  /PSL_fillbox psl_bits 128 and 128 eq def
  /PSL_drawbox psl_bits 256 and 256 eq def
  /PSL_n_labels_minus_1 PSL_n_labels 1 sub def
  /PSL_usebox PSL_fillbox PSL_drawbox or def
  0 1 PSL_n_labels_minus_1
  { /psl_k exch def
    PSL_ST_prepare_text
    PSL_usebox
    {  PSL_rounded
        {PSL_ST_textbox_round}
        {PSL_ST_textbox_rect}
      ifelse
      PSL_fillbox {V PSL_setboxrgb fill U} if
      PSL_drawbox {V PSL_setboxpen S U} if
      N
    } if
    PSL_placetext {PSL_ST_place_label} if
  } for
} def
/PSL_straight_path_clip
{
  /psl_bits exch def
  /PSL_rounded psl_bits 32 and 32 eq def
  /PSL_n_labels_minus_1 PSL_n_labels 1 sub def
  N clipsave clippath
  0 1 PSL_n_labels_minus_1
  { /psl_k exch def
    PSL_ST_prepare_text
    PSL_rounded
      {PSL_ST_textbox_round}
      {PSL_ST_textbox_rect}
    ifelse
  } for
  PSL_eoclip N
} def
/PSL_ST_prepare_text
{
  /psl_xp PSL_txt_x psl_k get def
  /psl_yp PSL_txt_y psl_k get def
  /psl_label PSL_label_str psl_k get def
  PSL_label_font psl_k get cvx exec
  /PSL_height PSL_heights psl_k get def
  /psl_boxH PSL_height PSL_gap_y 2 mul add def
  /PSL_just PSL_label_justify psl_k get def
  /PSL_justx PSL_just 4 mod 1 sub 2 div neg def
  /PSL_justy PSL_just 4 idiv 2 div neg def
  /psl_SW psl_label stringwidth pop def
  /psl_boxW psl_SW PSL_gap_x 2 mul add def
  /psl_x0 psl_SW PSL_justx mul def
  /psl_y0 PSL_justy PSL_height mul def
  /psl_angle PSL_label_angle psl_k get def
} def
/PSL_ST_textbox_rect
{
  psl_xp psl_yp T psl_angle R psl_x0 psl_y0 T
  PSL_gap_x neg PSL_gap_y neg M
  0 psl_boxH D psl_boxW 0 D 0 psl_boxH neg D P
  psl_x0 neg psl_y0 neg T psl_angle neg R psl_xp neg psl_yp neg T
} def
/PSL_ST_textbox_round
{
  /psl_BoxR PSL_gap_x PSL_gap_y lt {PSL_gap_x} {PSL_gap_y} ifelse def
  /psl_xd PSL_gap_x psl_BoxR sub def
  /psl_yd PSL_gap_y psl_BoxR sub def
  /psl_xL PSL_gap_x neg def
  /psl_yB PSL_gap_y neg def
  /psl_yT psl_boxH psl_yB add def
  /psl_H2 PSL_height psl_yd 2 mul add def
  /psl_W2 psl_SW psl_xd 2 mul add def
  /psl_xR psl_xL psl_boxW add def
  /psl_x0 psl_SW PSL_justx mul def
  psl_xp psl_yp T psl_angle R psl_x0 psl_y0 T
  psl_xL psl_yd M
  psl_xL psl_yT psl_xR psl_yT psl_BoxR arct psl_W2 0 D
  psl_xR psl_yT psl_xR psl_yB psl_BoxR arct 0 psl_H2 neg D
  psl_xR psl_yB psl_xL psl_yB psl_BoxR arct psl_W2 neg 0 D
  psl_xL psl_yB psl_xL psl_yd psl_BoxR arct P
  psl_x0 neg psl_y0 neg T psl_angle neg R psl_xp neg psl_yp neg T
} def
/PSL_ST_place_label
{
    V psl_xp psl_yp T psl_angle R
    psl_SW PSL_justx mul psl_y0 M
    psl_label dup sd neg 0 exch G show
    U
} def
/PSL_nclip 0 def
/PSL_clip {clip /PSL_nclip PSL_nclip 1 add def} def
/PSL_eoclip {eoclip /PSL_nclip PSL_nclip 1 add def} def
/PSL_cliprestore {cliprestore /PSL_nclip PSL_nclip 1 sub def} def
%%EndProlog

%%BeginSetup
/PSLevel /languagelevel where {pop languagelevel} {1} ifelse def
PSLevel 1 gt { << /PageSize [595 842] /ImagingBBox null >> setpagedevice } if
%%EndSetup

%%Page: 1 1

%%BeginPageSetup
V 595 0 T 90 R 0.06 0.06 scale
%%EndPageSetup

/PSL_page_xsize 14033 def
/PSL_page_ysize 9917 def
0 A
FQ
O0
1200 1200 TM

% PostScript produced by:
%@GMT: psvelo vector.dat -R0/1/0/1 -JX4.0i -Ba0.25f0.05 -Sr2/0.68/12p -BWSne -W1p,blue -Gdarkgray
%@PROJ: xy 0.00000000 1.00000000 0.00000000 1.00000000 0.000 1.000 0.000 1.000 +xy
%%BeginObject PSL_Layer_1
0 setlinecap
0 setlinejoin
3.32551 setmiterlimit
17 W
0 0 1 C
clipsave
0 0 M
4800 0 D
0 4800 D
-4800 0 D
P
PSL_clip N
1077 0 M
-1 12 D
-6 14 D
-3 5 D
-7 9 D
-4 3 D
-1 2 D
-27 17 D
-19 8 D
-34 8 D
-35 2 D
-36 -4 D
-25 -7 D
-19 -8 D
-25 -16 D
-2 -3 D
-4 -3 D
-9 -12 D
-6 -13 D
-2 -15 D
3 -16 D
8 -14 D
8 -10 D
3 -2 D
2 -3 D
29 -18 D
30 -10 D
25 -4 D
30 -2 D
36 4 D
25 7 D
19 8 D
25 16 D
3 4 D
3 2 D
8 10 D
1 3 D
6 14 D
1 11 D
P S
{0.663 A} FS
0 W
V 0 0 T N 0 0 M 825 0 D S
U
V 945 0 T 0 0 M
-150 40 D
30 -40 D
-30 -40 D
P clip fs P S 
U
1011 480 M
-1 28 D
-8 33 D
-10 23 D
-9 14 D
-10 11 D
-11 8 D
-11 4 D
-13 2 D
-13 -3 D
-9 -5 D
-5 -3 D
-11 -10 D
-8 -11 D
-6 -10 D
-10 -27 D
-6 -30 D
-1 -39 D
5 -31 D
7 -22 D
4 -9 D
7 -12 D
1 -3 D
10 -13 D
13 -10 D
15 -6 D
15 -1 D
15 5 D
2 2 D
3 1 D
11 9 D
14 19 D
8 16 D
9 30 D
3 30 D
0 8 D
P S
V 0 480 T 0.0188885 R
N 0 0 M 820 0 D S
U
V 940 480 T 0.0188885 R
0 0 M
-150 40 D
30 -40 D
-30 -40 D
P clip fs P S 
U
1011 971 M
0 1 D
-1 0 D
0 1 D
-1 0 D
0 1 D
-1 0 D
0 1 D
-2 0 D
0 1 D
-2 0 D
0 1 D
-19 4 D
-26 3 D
-62 1 D
-34 -4 D
-15 -4 D
0 -1 D
-2 0 D
0 -1 D
-2 0 D
0 -1 D
-1 0 D
0 -1 D
-1 0 D
0 -1 D
-1 0 D
0 -3 D
1 0 D
0 -1 D
1 0 D
0 -1 D
1 0 D
0 -1 D
2 0 D
0 -1 D
2 0 D
0 -1 D
26 -5 D
20 -2 D
60 -1 D
34 4 D
16 4 D
0 1 D
2 0 D
0 1 D
2 0 D
0 1 D
1 0 D
0 1 D
1 0 D
0 1 D
1 0 D
0 1 D
P S
V 0 960 T 0.652526 R
N 0 0 M 806 0 D S
U
V 926 971 T 0.652526 R
0 0 M
-150 40 D
30 -40 D
-30 -40 D
P clip fs P S 
U
1037 1519 M
-2 14 D
-7 15 D
-11 13 D
-2 1 D
-2 3 D
-14 10 D
-27 13 D
-28 7 D
-23 3 D
-32 1 D
-34 -5 D
-25 -8 D
-24 -11 D
-15 -11 D
-3 -4 D
-3 -2 D
-8 -10 D
-1 -3 D
-6 -12 D
-2 -16 D
3 -15 D
9 -16 D
6 -7 D
2 -1 D
3 -4 D
15 -11 D
12 -7 D
28 -10 D
31 -6 D
44 -1 D
34 6 D
19 6 D
24 11 D
10 7 D
9 7 D
13 17 D
6 17 D
1 7 D
P S
V 0 1440 T 4.98948 R
N 0 0 M 786 0 D S
U
V 903 1519 T 4.98948 R
0 0 M
-150 40 D
30 -40 D
-30 -40 D
P clip fs P S 
U
921 2005 M
-1 22 D
-7 26 D
-8 15 D
-5 8 D
-3 2 D
-1 2 D
-2 1 D
0 1 D
-5 3 D
0 1 D
-5 2 D
-7 2 D
0 1 D
-16 -1 D
-11 -6 D
-4 -3 D
0 -1 D
-4 -3 D
0 -1 D
-2 -1 D
-8 -12 D
-2 -5 D
-6 -17 D
-4 -21 D
-1 -25 D
4 -24 D
7 -20 D
8 -14 D
2 -3 D
2 -1 D
3 -4 D
1 0 D
1 -2 D
7 -4 D
0 -1 D
13 -4 D
10 0 D
0 1 D
7 2 D
10 6 D
1 2 D
2 1 D
11 15 D
2 5 D
5 12 D
4 17 D
2 19 D
0 5 D
P S
V 0 1920 T 5.54869 R
N 0 0 M 754 0 D S
U
V 870 2005 T 5.54869 R
0 0 M
-150 40 D
30 -40 D
-30 -40 D
P clip fs P S 
U
830 2459 M
-1 58 D
0 -117 D
1 58 D
P S
V 0 2400 T 4.05388 R
N 0 0 M 711 0 D S
U
V 829 2459 T 4.05388 R
0 0 M
-150 40 D
30 -40 D
-30 -40 D
P clip fs P S 
U
796 3074 M
0 1 D
-1 0 D
-1 2 D
-1 0 D
0 1 D
-1 0 D
0 1 D
-3 0 D
0 1 D
-15 1 D
0 -1 D
-6 -1 D
0 -1 D
-2 0 D
0 -1 D
-1 0 D
-1 -5 D
1 0 D
0 -1 D
1 0 D
0 -1 D
1 0 D
0 -1 D
2 0 D
0 -1 D
13 -2 D
0 1 D
6 0 D
0 1 D
3 0 D
0 1 D
2 0 D
0 1 D
1 0 D
0 1 D
1 0 D
0 2 D
1 0 D
P S
V 0 2880 T 13.9481 R
N 0 0 M 684 0 D S
U
V 780 3074 T 13.9481 R
0 0 M
-150 40 D
30 -40 D
-30 -40 D
P clip fs P S 
U
862 3531 M
-2 14 D
-4 9 D
-9 13 D
-3 2 D
-3 4 D
-18 13 D
-24 12 D
-7 2 D
-29 7 D
-26 3 D
-19 1 D
-31 -3 D
-23 -5 D
-13 -4 D
-22 -9 D
-19 -12 D
-1 -2 D
-7 -5 D
-8 -10 D
-6 -10 D
-4 -13 D
-1 -10 D
4 -15 D
3 -7 D
4 -5 D
1 -3 D
3 -2 D
5 -7 D
16 -12 D
14 -8 D
26 -10 D
37 -7 D
46 -1 D
26 4 D
26 7 D
13 5 D
21 11 D
14 11 D
2 3 D
3 2 D
7 9 D
1 3 D
6 14 D
1 9 D
P S
V 0 3360 T 13.2845 R
N 0 0 M 623 0 D S
U
V 723 3531 T 13.2845 R
0 0 M
-150 40 D
30 -40 D
-30 -40 D
P clip fs P S 
U
680 4345 M
-1 19 D
-3 13 D
-1 0 D
0 3 D
-1 0 D
-1 5 D
-1 0 D
-2 5 D
-1 0 D
0 1 D
-1 0 D
-3 4 D
-1 0 D
0 1 D
-10 1 D
0 -1 D
-3 -1 D
0 -1 D
-1 0 D
0 -1 D
-1 0 D
0 -1 D
-1 0 D
0 -1 D
-1 0 D
-3 -7 D
-1 0 D
-2 -9 D
-1 0 D
0 -4 D
-1 0 D
0 -4 D
-1 0 D
-1 -36 D
3 -15 D
1 0 D
2 -9 D
1 0 D
3 -7 D
1 0 D
0 -1 D
1 0 D
0 -1 D
1 0 D
0 -1 D
1 0 D
0 -1 D
1 0 D
0 -1 D
2 0 D
0 -1 D
6 -1 D
0 1 D
5 2 D
4 5 D
1 0 D
1 3 D
1 0 D
0 2 D
1 0 D
1 5 D
1 0 D
4 21 D
P S
V 0 3840 T 37.5161 R
N 0 0 M 710 0 D S
U
V 658 4345 T 37.5161 R
0 0 M
-150 40 D
30 -40 D
-30 -40 D
P clip fs P S 
U
713 5084 M
-2 25 D
-6 23 D
-7 18 D
-13 22 D
-9 11 D
-3 4 D
-2 1 D
-1 2 D
-13 10 D
-1 2 D
-28 15 D
-19 5 D
-19 2 D
-20 -1 D
-19 -5 D
-19 -8 D
-17 -11 D
-1 -2 D
-6 -4 D
-1 -2 D
-7 -6 D
-14 -19 D
-15 -29 D
-6 -21 D
-3 -29 D
1 -22 D
5 -24 D
14 -33 D
12 -17 D
9 -11 D
4 -3 D
1 -2 D
28 -19 D
25 -9 D
29 -3 D
23 3 D
17 6 D
12 5 D
15 10 D
11 9 D
6 7 D
4 3 D
13 19 D
11 21 D
6 19 D
4 24 D
1 12 D
P S
V 0 4320 T 52.4551 R
N 0 0 M 844 0 D S
U
V 587 5084 T 52.4551 R
0 0 M
-150 40 D
30 -40 D
-30 -40 D
P clip fs P S 
U
619 5468 M
-1 0 D
0 1 D
-193 1 D
-22 -1 D
0 -1 D
-1 0 D
110 -2 D
98 1 D
P S
V 0 4800 T 52.6222 R
N 0 0 M 721 0 D S
U
V 511 5468 T 52.6222 R
0 0 M
-150 40 D
30 -40 D
-30 -40 D
P clip fs P S 
U
1451 94 M
0 2 D
-1 0 D
0 1 D
-1 0 D
0 1 D
-3 1 D
0 1 D
-2 0 D
0 1 D
-21 5 D
-32 4 D
-36 2 D
-41 1 D
-51 -3 D
-37 -6 D
-9 -3 D
0 -1 D
-2 0 D
0 -1 D
-4 -2 D
0 -1 D
-1 0 D
1 -5 D
2 0 D
0 -1 D
14 -5 D
29 -5 D
39 -3 D
65 -1 D
49 4 D
30 6 D
9 4 D
0 1 D
2 1 D
0 1 D
1 0 D
P S
V 480 0 T 6.32971 R
N 0 0 M 736 0 D S
U
V 1330 94 T 6.32971 R
0 0 M
-150 40 D
30 -40 D
-30 -40 D
P clip fs P S 
U
1333 583 M
-2 49 D
-3 16 D
-1 3 D
-2 0 D
0 -1 D
-1 0 D
-1 -6 D
-1 0 D
-1 -15 D
-1 0 D
-1 -78 D
3 -29 D
1 0 D
1 -6 D
1 0 D
0 -1 D
2 1 D
2 9 D
2 17 D
2 40 D
P S
V 480 480 T 6.94489 R
N 0 0 M 732 0 D S
U
V 1326 583 T 6.94489 R
0 0 M
-150 40 D
30 -40 D
-30 -40 D
P clip fs P S 
U
1448 1055 M
-3 15 D
-8 13 D
-6 7 D
-4 3 D
-1 2 D
-15 10 D
-7 3 D
-20 9 D
-30 7 D
-28 3 D
-22 1 D
-30 -3 D
-30 -7 D
-8 -3 D
-17 -7 D
-15 -8 D
-7 -5 D
-4 -5 D
-5 -4 D
-8 -12 D
-4 -14 D
1 -16 D
6 -13 D
7 -9 D
4 -3 D
3 -4 D
18 -12 D
24 -10 D
24 -6 D
30 -4 D
30 -1 D
33 4 D
30 8 D
27 12 D
15 11 D
1 2 D
8 7 D
7 11 D
3 13 D
1 4 D
P S
V 480 960 T 6.51028 R
N 0 0 M 717 0 D S
U
V 1312 1055 T 6.51028 R
0 0 M
-150 40 D
30 -40 D
-30 -40 D
P clip fs P S 
U
1426 1567 M
-3 25 D
-9 23 D
-5 9 D
-8 11 D
-2 1 D
-2 4 D
-2 1 D
-1 2 D
-9 7 D
-1 2 D
-13 9 D
-27 14 D
-30 8 D
-31 2 D
-26 -3 D
-29 -9 D
-25 -13 D
-14 -11 D
-1 -2 D
-10 -9 D
-12 -17 D
-11 -23 D
-4 -22 D
1 -27 D
7 -22 D
11 -20 D
11 -14 D
2 -1 D
1 -2 D
9 -7 D
1 -2 D
21 -13 D
22 -10 D
25 -6 D
21 -2 D
27 1 D
25 6 D
18 7 D
24 13 D
1 2 D
7 5 D
4 3 D
1 2 D
7 6 D
5 7 D
2 1 D
3 6 D
2 1 D
11 23 D
5 22 D
1 10 D
P S
V 480 1440 T 8.95452 R
N 0 0 M 698 0 D S
U
V 1288 1567 T 8.95452 R
0 0 M
-150 40 D
30 -40 D
-30 -40 D
P clip fs P S 
U
1295 2115 M
-1 25 D
-6 22 D
-6 13 D
-3 6 D
-2 1 D
-4 6 D
-4 2 D
0 1 D
-11 4 D
-10 -1 D
0 -1 D
-2 0 D
0 -1 D
-2 0 D
0 -1 D
-4 -2 D
0 -1 D
-2 -1 D
0 -1 D
-1 0 D
-1 -2 D
-1 0 D
-1 -3 D
-1 0 D
-3 -6 D
-1 0 D
-4 -10 D
-5 -16 D
-3 -20 D
-1 -23 D
4 -27 D
7 -19 D
3 -6 D
1 0 D
5 -8 D
1 0 D
2 -3 D
1 0 D
0 -1 D
4 -2 D
0 -1 D
2 0 D
0 -1 D
2 0 D
0 -1 D
13 -1 D
0 1 D
8 3 D
0 1 D
4 2 D
0 1 D
1 0 D
1 2 D
1 0 D
1 3 D
2 1 D
9 19 D
6 24 D
1 21 D
P S
V 480 1920 T 14.1364 R
N 0 0 M 680 0 D S
U
V 1256 2115 T 14.1364 R
0 0 M
-150 40 D
30 -40 D
-30 -40 D
P clip fs P S 
U
1354 2629 M
-2 0 D
0 1 D
-241 1 D
-35 -2 D
131 -2 D
138 1 D
P S
V 480 2400 T 17.3244 R
N 0 0 M 650 0 D S
U
V 1215 2629 T 17.3244 R
0 0 M
-150 40 D
30 -40 D
-30 -40 D
P clip fs P S 
U
1193 3282 M
0 5 D
-1 0 D
0 2 D
-1 0 D
-1 3 D
-1 0 D
0 1 D
-1 0 D
0 1 D
-1 0 D
0 1 D
-5 2 D
0 1 D
-14 3 D
-14 -1 D
0 -1 D
-3 0 D
0 -1 D
-4 -1 D
0 -1 D
-3 -1 D
0 -1 D
-1 0 D
0 -1 D
-1 0 D
0 -1 D
-1 0 D
0 -1 D
-1 0 D
-2 -7 D
-1 0 D
0 -4 D
1 0 D
0 -3 D
1 0 D
0 -2 D
1 0 D
1 -3 D
1 0 D
0 -1 D
1 0 D
0 -1 D
3 -1 D
0 -1 D
6 -2 D
0 -1 D
3 0 D
0 -1 D
5 0 D
0 -1 D
15 1 D
4 1 D
0 1 D
2 0 D
0 1 D
2 0 D
0 1 D
2 0 D
0 1 D
5 4 D
0 1 D
1 0 D
0 1 D
1 0 D
P S
V 480 2880 T 30.4032 R
N 0 0 M 675 0 D S
U
V 1165 3282 T 30.4032 R
0 0 M
-150 40 D
30 -40 D
-30 -40 D
P clip fs P S 
U
1165 3666 M
-1 20 D
-4 14 D
-6 13 D
-9 13 D
-2 1 D
-2 3 D
-2 1 D
-1 2 D
-7 4 D
0 1 D
-16 5 D
-12 1 D
-15 -5 D
-8 -5 D
0 -1 D
-5 -3 D
-3 -4 D
-1 0 D
-10 -15 D
-7 -20 D
-3 -20 D
1 -23 D
4 -15 D
7 -15 D
10 -14 D
2 -1 D
2 -3 D
9 -6 D
9 -4 D
11 -2 D
13 1 D
12 5 D
0 1 D
8 5 D
10 11 D
8 14 D
4 10 D
4 21 D
0 8 D
P S
V 480 3360 T 25.9602 R
N 0 0 M 579 0 D S
U
V 1108 3666 T 25.9602 R
0 0 M
-150 40 D
30 -40 D
-30 -40 D
P clip fs P S 
U
1170 4116 M
-3 20 D
-9 22 D
-7 10 D
-12 13 D
-2 1 D
-1 2 D
-5 3 D
-1 2 D
-27 15 D
-22 7 D
-28 4 D
-31 -1 D
-31 -8 D
-25 -12 D
-14 -10 D
-5 -4 D
-2 -3 D
-2 -1 D
-3 -5 D
-2 -1 D
-12 -19 D
-5 -13 D
-3 -19 D
1 -17 D
6 -19 D
11 -19 D
2 -3 D
3 -2 D
9 -10 D
2 -1 D
1 -2 D
7 -4 D
1 -2 D
20 -11 D
30 -10 D
31 -3 D
22 1 D
23 5 D
23 9 D
16 9 D
13 10 D
1 2 D
3 2 D
1 2 D
2 1 D
11 15 D
8 16 D
4 19 D
1 7 D
P S
V 480 3840 T 26.0565 R
N 0 0 M 508 0 D S
U
V 1044 4116 T 26.0565 R
0 0 M
-150 40 D
30 -40 D
-30 -40 D
P clip fs P S 
U
1042 4604 M
0 2 D
-1 0 D
0 3 D
-1 0 D
0 1 D
-1 0 D
-4 5 D
-1 0 D
0 1 D
-1 0 D
0 1 D
-2 0 D
0 1 D
-2 0 D
0 1 D
-11 4 D
-17 4 D
-19 2 D
-35 -1 D
-18 -4 D
0 -1 D
-8 -2 D
-8 -4 D
0 -1 D
-3 -1 D
0 -1 D
-1 0 D
0 -1 D
-1 0 D
0 -1 D
-1 0 D
-1 -3 D
-1 0 D
0 -2 D
-1 0 D
0 -7 D
1 0 D
0 -2 D
1 0 D
2 -4 D
10 -6 D
1 0 D
0 -1 D
20 -6 D
25 -3 D
34 1 D
24 6 D
0 1 D
7 2 D
0 1 D
5 2 D
0 1 D
1 0 D
0 1 D
1 0 D
0 1 D
2 1 D
0 1 D
1 0 D
0 1 D
1 0 D
1 4 D
1 0 D
0 2 D
P S
V 480 4320 T 29.9178 R
N 0 0 M 449 0 D S
U
V 973 4604 T 29.9178 R
0 0 M
-150 40 D
30 -40 D
-30 -40 D
P clip fs P S 
U
987 5565 M
0 3 D
-1 0 D
0 2 D
-1 0 D
-1 3 D
-1 0 D
0 1 D
-1 0 D
0 1 D
-2 0 D
0 1 D
-1 0 D
0 1 D
-3 1 D
0 1 D
-4 1 D
0 1 D
-25 7 D
-20 3 D
-29 2 D
-30 -1 D
-29 -5 D
-18 -6 D
-5 -2 D
0 -1 D
-4 -2 D
0 -1 D
-2 0 D
0 -1 D
-1 0 D
-2 -4 D
-1 0 D
0 -2 D
-1 0 D
0 -6 D
1 0 D
0 -2 D
1 0 D
2 -4 D
1 0 D
0 -1 D
6 -3 D
0 -1 D
5 -2 D
15 -5 D
13 -3 D
25 -3 D
39 -1 D
37 5 D
22 7 D
0 1 D
4 1 D
0 1 D
3 1 D
0 1 D
3 1 D
0 1 D
1 0 D
0 1 D
1 0 D
1 3 D
1 0 D
0 2 D
1 0 D
0 2 D
P S
V 480 4800 T 61.4602 R
N 0 0 M 751 0 D S
U
V 896 5565 T 61.4602 R
0 0 M
-150 40 D
30 -40 D
-30 -40 D
P clip fs P S 
U
1820 188 M
-2 17 D
-7 17 D
-2 2 D
-1 3 D
-15 17 D
-15 11 D
-18 9 D
-24 6 D
-35 1 D
-22 -5 D
-20 -8 D
-4 -3 D
-5 -2 D
-13 -10 D
-15 -19 D
-7 -16 D
-3 -17 D
1 -18 D
5 -14 D
8 -13 D
11 -13 D
21 -15 D
22 -9 D
23 -4 D
22 -1 D
23 4 D
23 9 D
9 5 D
19 15 D
10 13 D
7 15 D
3 14 D
1 7 D
P S
V 960 0 T 13.9465 R
N 0 0 M 659 0 D S
U
V 1716 188 T 13.9465 R
0 0 M
-150 40 D
30 -40 D
-30 -40 D
P clip fs P S 
U
1777 676 M
-2 21 D
-8 22 D
-7 11 D
-7 9 D
-17 12 D
-16 5 D
-11 1 D
-15 -3 D
-11 -5 D
-10 -7 D
-2 -3 D
-6 -5 D
-6 -8 D
-1 -3 D
-3 -4 D
-8 -25 D
-2 -21 D
3 -21 D
8 -20 D
5 -8 D
9 -11 D
3 -2 D
3 -4 D
11 -6 D
11 -4 D
17 -2 D
11 2 D
15 7 D
12 9 D
11 15 D
4 6 D
6 18 D
2 13 D
1 9 D
P S
V 960 480 T 14.6163 R
N 0 0 M 656 0 D S
U
V 1711 676 T 14.6163 R
0 0 M
-150 40 D
30 -40 D
-30 -40 D
P clip fs P S 
U
1759 1166 M
-2 39 D
-8 39 D
-9 25 D
-7 12 D
-1 3 D
-11 13 D
-10 8 D
-10 3 D
-14 -1 D
-8 -5 D
-12 -11 D
-11 -17 D
-10 -26 D
-5 -22 D
-5 -37 D
-1 -35 D
5 -43 D
9 -34 D
10 -23 D
9 -13 D
13 -12 D
9 -4 D
10 -1 D
11 4 D
7 5 D
13 14 D
7 12 D
10 26 D
8 37 D
3 42 D
P S
V 960 960 T 15.6389 R
N 0 0 M 645 0 D S
U
V 1697 1166 T 15.6389 R
0 0 M
-150 40 D
30 -40 D
-30 -40 D
P clip fs P S 
U
1804 1675 M
-2 14 D
-8 15 D
-7 8 D
-4 3 D
-1 2 D
-16 11 D
-9 4 D
-16 7 D
-34 8 D
-29 2 D
-31 -1 D
-26 -5 D
-29 -10 D
-20 -11 D
-15 -14 D
-6 -8 D
-6 -13 D
-2 -15 D
4 -15 D
3 -5 D
3 -5 D
11 -13 D
19 -13 D
9 -4 D
25 -9 D
23 -5 D
25 -2 D
38 1 D
24 5 D
23 8 D
21 10 D
12 9 D
2 3 D
7 6 D
9 16 D
3 15 D
P S
V 960 1440 T 18.2193 R
N 0 0 M 631 0 D S
U
V 1674 1675 T 18.2193 R
0 0 M
-150 40 D
30 -40 D
-30 -40 D
P clip fs P S 
U
1752 2224 M
-1 6 D
-1 0 D
0 2 D
-1 0 D
-2 4 D
-1 0 D
-1 2 D
-1 0 D
0 1 D
-15 9 D
-20 7 D
-30 6 D
-36 2 D
-34 -1 D
-33 -6 D
-25 -9 D
-11 -7 D
0 -1 D
-5 -4 D
0 -1 D
-1 0 D
-2 -6 D
-1 0 D
1 -10 D
3 -5 D
1 0 D
1 -2 D
1 0 D
0 -1 D
2 -1 D
0 -1 D
14 -8 D
24 -8 D
22 -4 D
37 -3 D
33 1 D
35 6 D
23 8 D
13 7 D
0 1 D
5 3 D
2 4 D
1 0 D
3 8 D
P S
V 960 1920 T 24.0579 R
N 0 0 M 626 0 D S
U
V 1641 2224 T 24.0579 R
0 0 M
-150 40 D
30 -40 D
-30 -40 D
P clip fs P S 
U
1736 2787 M
-208 1 D
-64 -1 D
249 -1 D
P S
V 960 2400 T 31.1444 R
N 0 0 M 628 0 D S
U
V 1600 2787 T 31.1444 R
0 0 M
-150 40 D
30 -40 D
-30 -40 D
P clip fs P S 
U
1601 3195 M
-2 38 D
-6 33 D
-8 24 D
-9 17 D
-9 11 D
-2 1 D
0 1 D
-5 2 D
0 1 D
-7 1 D
0 1 D
-11 -2 D
-2 -1 D
0 -1 D
-5 -3 D
-11 -14 D
-5 -8 D
-10 -30 D
-6 -35 D
-2 -34 D
1 -34 D
6 -35 D
3 -11 D
7 -20 D
8 -15 D
6 -8 D
3 -2 D
0 -1 D
7 -4 D
9 -2 D
7 1 D
7 4 D
0 1 D
5 3 D
7 9 D
1 3 D
2 2 D
1 3 D
6 14 D
8 29 D
5 38 D
1 21 D
P S
V 960 2880 T 28.0468 R
N 0 0 M 549 0 D S
U
V 1551 3195 T 28.0468 R
0 0 M
-150 40 D
30 -40 D
-30 -40 D
P clip fs P S 
U
1622 3893 M
0 3 D
-1 0 D
-1 4 D
-1 0 D
0 2 D
-2 1 D
0 1 D
-1 0 D
0 1 D
-12 8 D
-28 9 D
-28 5 D
-34 3 D
-34 1 D
-44 -4 D
-30 -6 D
-23 -9 D
-10 -6 D
0 -1 D
-5 -4 D
-2 -7 D
0 -5 D
1 0 D
0 -2 D
1 0 D
0 -2 D
1 0 D
1 -2 D
1 0 D
0 -1 D
2 -1 D
0 -1 D
14 -8 D
26 -8 D
37 -6 D
33 -2 D
50 1 D
38 6 D
29 9 D
13 7 D
0 1 D
6 5 D
P S
V 960 3360 T 44.9715 R
N 0 0 M 634 0 D S
U
V 1494 3893 T 44.9715 R
0 0 M
-150 40 D
30 -40 D
-30 -40 D
P clip fs P S 
U
1449 4186 M
0 5 D
-1 0 D
-1 4 D
-1 0 D
-1 2 D
-1 0 D
-1 2 D
-1 0 D
0 1 D
-6 2 D
0 1 D
-16 -1 D
0 -1 D
-2 0 D
0 -1 D
-3 -1 D
0 -1 D
-1 0 D
0 -1 D
-1 0 D
0 -1 D
-1 0 D
0 -2 D
-1 0 D
0 -2 D
-1 0 D
0 -3 D
-1 0 D
0 -6 D
1 0 D
0 -3 D
1 0 D
0 -2 D
1 0 D
2 -4 D
3 -1 D
0 -1 D
1 0 D
0 -1 D
5 -1 D
0 -1 D
15 1 D
0 1 D
4 1 D
0 1 D
1 0 D
0 1 D
1 0 D
0 1 D
1 0 D
0 1 D
1 0 D
0 1 D
1 0 D
1 4 D
1 0 D
P S
V 960 3840 T 36.4034 R
N 0 0 M 463 0 D S
U
V 1429 4186 T 36.4034 R
0 0 M
-150 40 D
30 -40 D
-30 -40 D
P clip fs P S 
U
1442 5142 M
-1 17 D
-9 25 D
-10 13 D
-1 3 D
-15 13 D
-16 9 D
-24 6 D
-22 -1 D
-17 -5 D
-13 -7 D
-2 -2 D
-3 -1 D
-14 -13 D
-8 -11 D
-1 -3 D
-2 -2 D
-7 -21 D
-2 -17 D
1 -19 D
6 -19 D
8 -14 D
7 -9 D
16 -14 D
18 -9 D
19 -4 D
26 1 D
19 7 D
14 9 D
13 12 D
5 7 D
8 14 D
6 22 D
1 12 D
P S
V 960 4320 T 64.1519 R
N 0 0 M 794 0 D S
U
V 1358 5142 T 64.1519 R
0 0 M
-150 40 D
30 -40 D
-30 -40 D
P clip fs P S 
U
1290 5190 M
-1 15 D
-1 0 D
0 4 D
-1 0 D
0 3 D
-1 0 D
0 2 D
-1 0 D
0 1 D
-1 0 D
0 1 D
-1 0 D
0 1 D
-3 0 D
0 -1 D
-1 0 D
0 -1 D
-1 0 D
0 -1 D
-1 0 D
-1 -5 D
-1 0 D
0 -4 D
-1 0 D
-1 -22 D
1 0 D
0 -7 D
1 0 D
0 -4 D
1 0 D
0 -3 D
1 0 D
0 -2 D
1 0 D
2 -3 D
4 0 D
0 1 D
1 0 D
0 2 D
1 0 D
0 2 D
1 0 D
3 20 D
P S
V 960 4800 T 50.5192 R
N 0 0 M 386 0 D S
U
V 1282 5190 T 50.5192 R
0 0 M
-150 40 D
30 -40 D
-30 -40 D
P clip fs P S 
U
2124 279 M
-2 37 D
-5 29 D
-7 18 D
-1 0 D
-1 3 D
-1 0 D
0 1 D
-1 0 D
0 1 D
-2 0 D
0 1 D
-7 -1 D
0 -1 D
-1 0 D
0 -1 D
-1 0 D
-2 -4 D
-1 0 D
0 -2 D
-1 0 D
-6 -20 D
-3 -20 D
-2 -20 D
-1 -32 D
4 -40 D
6 -24 D
4 -9 D
1 0 D
0 -1 D
1 0 D
1 -3 D
3 -1 D
0 -1 D
6 1 D
3 4 D
1 0 D
8 20 D
4 26 D
2 25 D
1 13 D
P S
V 1440 0 T 22.8881 R
N 0 0 M 598 0 D S
U
V 2101 279 T 22.8881 R
0 0 M
-150 40 D
30 -40 D
-30 -40 D
P clip fs P S 
U
2182 765 M
-1 3 D
-2 1 D
0 1 D
-16 5 D
-17 3 D
-23 2 D
-48 1 D
-32 -3 D
-16 -3 D
0 -1 D
-9 -2 D
0 -1 D
-2 0 D
0 -1 D
-2 0 D
0 -1 D
-1 0 D
0 -1 D
-1 0 D
0 -1 D
-1 0 D
0 -3 D
1 0 D
1 -2 D
1 0 D
0 -1 D
1 0 D
0 -1 D
2 0 D
0 -1 D
21 -5 D
25 -3 D
62 -1 D
33 4 D
16 4 D
0 1 D
5 2 D
2 1 D
0 1 D
1 0 D
P S
V 1440 480 T 23.4856 R
N 0 0 M 596 0 D S
U
V 2097 765 T 23.4856 R
0 0 M
-150 40 D
30 -40 D
-30 -40 D
P clip fs P S 
U
2149 1258 M
-3 12 D
-3 5 D
-1 0 D
-2 4 D
-1 0 D
0 1 D
-2 1 D
0 1 D
-13 8 D
-13 5 D
-16 3 D
-22 1 D
-16 -3 D
-18 -7 D
-8 -5 D
0 -1 D
-3 -1 D
-2 -3 D
-1 0 D
-2 -4 D
-1 0 D
-4 -9 D
-1 -14 D
3 -7 D
2 -4 D
1 0 D
0 -1 D
1 0 D
6 -7 D
1 0 D
0 -1 D
13 -7 D
19 -6 D
23 -2 D
18 2 D
16 5 D
0 1 D
8 3 D
0 1 D
8 5 D
3 2 D
2 4 D
1 0 D
0 1 D
1 0 D
5 11 D
1 5 D
P S
V 1440 960 T 24.8855 R
N 0 0 M 588 0 D S
U
V 2083 1258 T 24.8855 R
0 0 M
-150 40 D
30 -40 D
-30 -40 D
P clip fs P S 
U
2092 1800 M
-1 37 D
-5 31 D
-7 24 D
-6 12 D
-1 0 D
-1 3 D
-3 2 D
0 1 D
-7 3 D
-6 0 D
0 -1 D
-2 0 D
0 -1 D
-1 0 D
0 -1 D
-5 -4 D
-10 -20 D
-7 -31 D
-3 -31 D
-1 -43 D
5 -42 D
5 -20 D
7 -17 D
7 -10 D
3 -2 D
0 -1 D
2 0 D
0 -1 D
10 1 D
2 1 D
0 1 D
1 0 D
2 3 D
1 0 D
1 3 D
1 0 D
8 18 D
4 14 D
4 22 D
3 32 D
0 16 D
P S
V 1440 1440 T 30.2057 R
N 0 0 M 596 0 D S
U
V 2059 1800 T 30.2057 R
0 0 M
-150 40 D
30 -40 D
-30 -40 D
P clip fs P S 
U
2075 2254 M
-1 12 D
-5 13 D
-1 2 D
-1 0 D
-4 7 D
-1 0 D
0 1 D
-2 1 D
0 1 D
-3 2 D
0 1 D
-3 1 D
0 1 D
-5 2 D
0 1 D
-3 1 D
-15 4 D
-16 -1 D
-12 -5 D
0 -1 D
-2 0 D
0 -1 D
-3 -1 D
0 -1 D
-2 -1 D
0 -1 D
-1 0 D
0 -1 D
-2 -1 D
0 -1 D
-1 0 D
0 -1 D
-2 -1 D
0 -1 D
-1 0 D
-1 -3 D
-1 0 D
-2 -5 D
-1 0 D
-1 -4 D
-1 0 D
-1 -5 D
-2 -11 D
1 -18 D
2 -5 D
0 -1 D
1 0 D
1 -4 D
1 0 D
4 -8 D
1 0 D
1 -2 D
1 0 D
0 -1 D
1 0 D
1 -2 D
1 0 D
0 -1 D
1 0 D
1 -2 D
1 0 D
0 -1 D
3 -1 D
0 -1 D
2 0 D
0 -1 D
14 -5 D
17 -1 D
12 4 D
3 1 D
0 1 D
5 2 D
0 1 D
3 1 D
2 3 D
1 0 D
1 2 D
1 0 D
0 1 D
1 0 D
2 4 D
1 0 D
1 3 D
1 0 D
4 10 D
0 1 D
1 0 D
2 15 D
P S
V 1440 1920 T 29.6462 R
N 0 0 M 555 0 D S
U
V 2027 2254 T 29.6462 R
0 0 M
-150 40 D
30 -40 D
-30 -40 D
P clip fs P S 
U
2050 2740 M
-1 19 D
-6 20 D
-9 17 D
-10 12 D
-15 10 D
-16 5 D
-7 1 D
-17 -3 D
-15 -8 D
-3 -2 D
-2 -3 D
-7 -6 D
-10 -15 D
-1 -3 D
-6 -16 D
-3 -16 D
-1 -21 D
5 -24 D
9 -19 D
11 -14 D
5 -4 D
2 -3 D
9 -5 D
11 -4 D
15 -2 D
18 4 D
14 9 D
6 5 D
11 14 D
1 3 D
6 12 D
4 15 D
2 17 D
0 3 D
P S
V 1440 2400 T 31.9134 R
N 0 0 M 523 0 D S
U
V 1986 2740 T 31.9134 R
0 0 M
-150 40 D
30 -40 D
-30 -40 D
P clip fs P S 
U
2000 3174 M
-2 37 D
-8 40 D
-8 21 D
-11 21 D
-14 15 D
-9 5 D
-9 2 D
-13 -1 D
-13 -9 D
-11 -12 D
-6 -9 D
-3 -7 D
-7 -16 D
-8 -30 D
-4 -35 D
-1 -39 D
4 -34 D
5 -22 D
8 -24 D
10 -19 D
11 -13 D
9 -8 D
8 -3 D
15 -1 D
11 5 D
14 13 D
7 10 D
2 5 D
9 19 D
9 34 D
4 35 D
1 17 D
P S
V 1440 2880 T 30.6313 R
N 0 0 M 457 0 D S
U
V 1936 3174 T 30.6313 R
0 0 M
-150 40 D
30 -40 D
-30 -40 D
P clip fs P S 
U
1904 3774 M
-1 41 D
-6 47 D
-6 22 D
-6 11 D
-3 2 D
0 1 D
-7 -1 D
0 -1 D
-1 0 D
0 -1 D
-1 0 D
0 -1 D
-1 0 D
0 -2 D
-1 0 D
-1 -4 D
-1 0 D
-6 -20 D
-5 -30 D
-3 -42 D
1 -71 D
5 -37 D
6 -23 D
2 -5 D
1 0 D
1 -4 D
1 0 D
0 -2 D
1 0 D
0 -1 D
1 0 D
0 -1 D
1 0 D
0 -1 D
7 -1 D
0 1 D
4 3 D
6 13 D
6 27 D
4 35 D
2 43 D
P S
V 1440 3360 T 43.3086 R
N 0 0 M 484 0 D S
U
V 1879 3774 T 43.3086 R
0 0 M
-150 40 D
30 -40 D
-30 -40 D
P clip fs P S 
U
1901 4191 M
-2 25 D
-5 19 D
-8 19 D
-9 15 D
-2 3 D
-3 2 D
-5 7 D
-16 12 D
-15 7 D
-20 3 D
-15 -1 D
-17 -6 D
-16 -11 D
-5 -4 D
-3 -4 D
-2 -1 D
-14 -21 D
-9 -22 D
-5 -24 D
-1 -29 D
3 -20 D
9 -26 D
10 -18 D
7 -9 D
2 -1 D
4 -5 D
4 -3 D
1 -2 D
12 -8 D
3 -1 D
17 -6 D
14 -2 D
22 4 D
17 9 D
6 4 D
9 8 D
4 6 D
3 2 D
7 10 D
3 7 D
10 24 D
4 25 D
1 11 D
P S
V 1440 3840 T 43.141 R
N 0 0 M 394 0 D S
U
V 1815 4191 T 43.141 R
0 0 M
-150 40 D
30 -40 D
-30 -40 D
P clip fs P S 
U
1763 4977 M
-2 21 D
-2 8 D
-1 0 D
0 3 D
-1 0 D
-3 8 D
-1 0 D
-1 3 D
-1 0 D
0 1 D
-3 1 D
0 1 D
-2 0 D
0 1 D
-4 0 D
0 -1 D
-4 -1 D
0 -1 D
-1 0 D
0 -1 D
-1 0 D
0 -1 D
-1 0 D
-1 -3 D
-1 0 D
0 -2 D
-1 0 D
0 -2 D
-1 0 D
-2 -8 D
-1 0 D
0 -4 D
-1 0 D
-1 -13 D
-1 0 D
1 -28 D
1 0 D
1 -9 D
2 -6 D
1 0 D
0 -2 D
1 0 D
0 -2 D
1 0 D
0 -2 D
1 0 D
0 -2 D
1 0 D
0 -1 D
1 0 D
0 -1 D
1 0 D
0 -1 D
1 0 D
0 -1 D
1 0 D
0 -1 D
7 -1 D
4 2 D
0 1 D
1 0 D
0 1 D
1 0 D
7 15 D
0 2 D
1 0 D
2 19 D
1 0 D
0 6 D
P S
V 1440 4320 T 65.175 R
N 0 0 M 604 0 D S
U
V 1744 4977 T 65.175 R
0 0 M
-150 40 D
30 -40 D
-30 -40 D
P clip fs P S 
U
1708 5606 M
-1 32 D
-7 43 D
-10 28 D
-7 12 D
-1 0 D
-5 6 D
-1 0 D
0 1 D
-7 2 D
-1 0 D
0 1 D
-2 0 D
0 -1 D
-6 -1 D
-8 -7 D
0 -1 D
-2 -1 D
-5 -8 D
-11 -31 D
-6 -37 D
-2 -44 D
3 -43 D
7 -33 D
7 -19 D
5 -9 D
3 -5 D
1 0 D
5 -6 D
7 -3 D
3 -1 D
9 3 D
0 1 D
6 5 D
0 1 D
2 1 D
5 8 D
1 3 D
10 28 D
6 37 D
2 36 D
P S
V 1440 4800 T 74.2674 R
N 0 0 M 717 0 D S
U
V 1667 5606 T 74.2674 R
0 0 M
-150 40 D
30 -40 D
-30 -40 D
P clip fs P S 
U
2515 368 M
-1 39 D
-5 31 D
-8 25 D
-2 5 D
-1 0 D
-1 3 D
-1 0 D
0 1 D
-1 0 D
0 1 D
-1 0 D
0 1 D
-1 0 D
0 1 D
-3 1 D
0 1 D
-8 -1 D
0 -1 D
-1 0 D
0 -1 D
-1 0 D
0 -1 D
-1 0 D
0 -1 D
-1 0 D
0 -1 D
-1 0 D
-1 -3 D
-1 0 D
-2 -5 D
-2 -5 D
-6 -20 D
-5 -36 D
-2 -40 D
3 -42 D
6 -31 D
6 -17 D
1 0 D
2 -5 D
1 -2 D
1 0 D
0 -1 D
1 0 D
1 -2 D
1 0 D
1 -2 D
8 -1 D
0 1 D
2 0 D
0 1 D
1 0 D
0 1 D
2 1 D
0 1 D
1 0 D
0 1 D
1 0 D
3 7 D
1 0 D
7 23 D
5 29 D
2 34 D
0 8 D
P S
V 1920 0 T 32.9848 R
N 0 0 M 556 0 D S
U
V 2487 368 T 32.9848 R
0 0 M
-150 40 D
30 -40 D
-30 -40 D
P clip fs P S 
U
2581 850 M
-2 21 D
-8 22 D
-9 15 D
-6 8 D
-2 1 D
-3 4 D
-4 3 D
-1 2 D
-21 13 D
-19 7 D
-22 2 D
-21 -1 D
-16 -5 D
-13 -6 D
-14 -9 D
-9 -8 D
-5 -7 D
-2 -1 D
-5 -7 D
-2 -5 D
-3 -4 D
-2 -5 D
-6 -16 D
-2 -22 D
1 -20 D
4 -14 D
8 -17 D
7 -11 D
2 -1 D
6 -8 D
4 -3 D
1 -2 D
17 -11 D
14 -7 D
17 -4 D
22 -2 D
19 3 D
16 6 D
11 5 D
14 10 D
2 3 D
4 3 D
1 2 D
4 3 D
10 14 D
2 5 D
8 21 D
3 22 D
P S
V 1920 480 T 33.3775 R
N 0 0 M 553 0 D S
U
V 2482 850 T 33.3775 R
0 0 M
-150 40 D
30 -40 D
-30 -40 D
P clip fs P S 
U
2490 1337 M
-1 38 D
-5 32 D
-6 17 D
-2 4 D
-1 0 D
0 2 D
-2 1 D
0 1 D
-1 0 D
0 1 D
-2 0 D
0 1 D
-5 -1 D
-2 -1 D
-2 -4 D
-1 0 D
-2 -6 D
-1 0 D
-7 -29 D
-3 -29 D
-1 -49 D
4 -36 D
6 -24 D
2 -5 D
1 0 D
0 -2 D
1 0 D
0 -2 D
1 0 D
0 -1 D
1 0 D
2 -3 D
1 0 D
0 -1 D
3 0 D
0 -1 D
0 1 D
4 1 D
3 4 D
1 0 D
0 2 D
1 0 D
0 2 D
1 0 D
6 20 D
4 25 D
2 32 D
0 8 D
P S
V 1920 960 T 34.5301 R
N 0 0 M 545 0 D S
U
V 2468 1337 T 34.5301 R
0 0 M
-150 40 D
30 -40 D
-30 -40 D
P clip fs P S 
U
2476 1846 M
-1 23 D
-5 21 D
-1 0 D
-3 9 D
-1 0 D
-1 3 D
-5 8 D
-1 0 D
0 1 D
-1 0 D
0 1 D
-3 1 D
0 1 D
-11 3 D
0 -1 D
-4 0 D
0 -1 D
-2 0 D
0 -1 D
-2 0 D
0 -1 D
-1 0 D
0 -1 D
-4 -3 D
0 -1 D
-1 0 D
0 -1 D
-1 0 D
0 -2 D
-1 0 D
-1 -3 D
-1 0 D
-7 -19 D
-4 -21 D
-1 -26 D
4 -25 D
6 -17 D
1 0 D
1 -4 D
1 0 D
1 -3 D
1 0 D
0 -2 D
1 0 D
0 -1 D
1 0 D
0 -1 D
1 0 D
0 -1 D
1 0 D
0 -1 D
1 0 D
0 -1 D
1 0 D
0 -1 D
1 0 D
0 -1 D
2 0 D
0 -1 D
2 0 D
0 -1 D
4 0 D
0 -1 D
9 2 D
2 1 D
0 1 D
7 6 D
4 7 D
6 15 D
3 14 D
2 19 D
0 5 D
P S
V 1920 1440 T 37.7319 R
N 0 0 M 543 0 D S
U
V 2445 1846 T 37.7319 R
0 0 M
-150 40 D
30 -40 D
-30 -40 D
P clip fs P S 
U
2454 2339 M
0 7 D
-1 0 D
-1 8 D
-1 0 D
0 2 D
-1 0 D
0 2 D
-1 0 D
0 2 D
-1 0 D
0 2 D
-1 0 D
-1 3 D
-1 0 D
0 1 D
-1 0 D
0 1 D
-1 0 D
-5 6 D
-9 5 D
-4 1 D
0 1 D
-13 2 D
-15 -3 D
0 -1 D
-6 -2 D
0 -1 D
-3 -1 D
0 -1 D
-4 -2 D
0 -1 D
-1 0 D
0 -1 D
-1 0 D
-8 -13 D
-1 -4 D
-1 0 D
-1 -21 D
5 -13 D
7 -9 D
3 -2 D
0 -1 D
1 0 D
0 -1 D
1 0 D
0 -1 D
2 0 D
0 -1 D
1 0 D
0 -1 D
2 0 D
0 -1 D
2 0 D
0 -1 D
2 0 D
0 -1 D
7 -1 D
0 -1 D
20 1 D
13 7 D
2 1 D
0 1 D
1 0 D
0 1 D
1 0 D
0 1 D
1 0 D
0 1 D
1 0 D
0 1 D
1 0 D
0 1 D
1 0 D
8 17 D
0 3 D
1 0 D
0 6 D
P S
V 1920 1920 T 40.4057 R
N 0 0 M 527 0 D S
U
V 2412 2339 T 40.4057 R
0 0 M
-150 40 D
30 -40 D
-30 -40 D
P clip fs P S 
U
2374 2926 M
-1 121 D
-1 12 D
-1 0 D
0 -4 D
-1 0 D
-2 -156 D
2 -101 D
1 0 D
0 -4 D
1 0 D
2 89 D
0 41 D
P S
V 1920 2400 T 49.3975 R
N 0 0 M 573 0 D S
U
V 2371 2926 T 49.3975 R
0 0 M
-150 40 D
30 -40 D
-30 -40 D
P clip fs P S 
U
2404 3478 M
-1 23 D
-5 22 D
-8 22 D
-9 17 D
-11 13 D
-3 4 D
-14 10 D
-4 3 D
-17 5 D
-17 1 D
-14 -4 D
-9 -4 D
-11 -8 D
-5 -4 D
-2 -3 D
-3 -2 D
-16 -24 D
-9 -24 D
-5 -28 D
-1 -33 D
5 -29 D
9 -24 D
11 -19 D
7 -9 D
2 -1 D
4 -5 D
14 -10 D
13 -6 D
15 -2 D
15 1 D
11 4 D
11 6 D
12 10 D
3 4 D
2 1 D
13 20 D
9 21 D
2 8 D
4 17 D
2 25 D
P S
V 1920 2880 T 56.1139 R
N 0 0 M 601 0 D S
U
V 2322 3478 T 56.1139 R
0 0 M
-150 40 D
30 -40 D
-30 -40 D
P clip fs P S 
U
2299 3775 M
0 10 D
-1 0 D
-1 9 D
-2 7 D
-1 0 D
-3 8 D
-1 0 D
0 2 D
-1 0 D
-3 5 D
-1 0 D
-2 3 D
-1 0 D
0 1 D
-1 0 D
0 1 D
-3 1 D
0 1 D
-10 3 D
-1 0 D
0 1 D
-9 -1 D
0 -1 D
-3 0 D
0 -1 D
-5 -2 D
0 -1 D
-3 -1 D
0 -1 D
-1 0 D
0 -1 D
-1 0 D
0 -1 D
-1 0 D
0 -1 D
-1 0 D
0 -2 D
-1 0 D
0 -1 D
-1 0 D
-7 -15 D
0 -1 D
-1 0 D
-3 -23 D
2 -17 D
2 -7 D
1 0 D
1 -5 D
1 -2 D
1 0 D
0 -2 D
1 0 D
3 -5 D
6 -7 D
1 0 D
0 -1 D
3 -1 D
0 -1 D
2 0 D
0 -1 D
2 0 D
0 -1 D
3 0 D
0 -1 D
14 1 D
6 3 D
0 1 D
5 3 D
0 1 D
1 0 D
2 4 D
1 0 D
0 1 D
1 0 D
4 9 D
1 0 D
4 17 D
1 11 D
P S
V 1920 3360 T 50.2646 R
N 0 0 M 419 0 D S
U
V 2265 3775 T 50.2646 R
0 0 M
-150 40 D
30 -40 D
-30 -40 D
P clip fs P S 
U
2312 4325 M
0 1 D
-1 0 D
-1 8 D
-4 7 D
-4 6 D
-3 2 D
-3 4 D
-8 5 D
-6 4 D
-3 1 D
-23 9 D
-29 5 D
-29 2 D
-28 -2 D
-29 -6 D
-15 -6 D
-13 -7 D
-11 -8 D
-2 -3 D
-3 -2 D
-3 -5 D
-1 0 D
-4 -15 D
2 -11 D
1 -3 D
1 0 D
5 -8 D
2 -1 D
4 -5 D
14 -9 D
15 -7 D
22 -6 D
28 -4 D
25 -1 D
29 3 D
33 9 D
19 10 D
10 7 D
3 4 D
1 0 D
6 10 D
2 9 D
1 2 D
P S
V 1920 3840 T 59.948 R
N 0 0 M 440 0 D S
U
V 2200 4325 T 59.948 R
0 0 M
-150 40 D
30 -40 D
-30 -40 D
P clip fs P S 
U
2223 5143 M
-3 29 D
-7 24 D
-11 23 D
-4 6 D
-2 1 D
-5 8 D
-3 2 D
-1 2 D
-4 3 D
-1 2 D
-16 11 D
-5 2 D
-11 4 D
-17 3 D
-18 -1 D
-19 -7 D
-9 -5 D
-10 -7 D
-2 -3 D
-3 -2 D
-1 -2 D
-3 -2 D
-15 -22 D
-9 -20 D
-6 -26 D
-2 -27 D
3 -27 D
6 -20 D
11 -23 D
8 -11 D
5 -7 D
3 -2 D
1 -2 D
6 -4 D
2 -3 D
17 -10 D
15 -5 D
21 -2 D
20 4 D
21 11 D
4 3 D
1 2 D
13 12 D
3 5 D
2 1 D
10 17 D
8 20 D
5 24 D
2 19 D
P S
V 1920 4320 T 75.7279 R
N 0 0 M 729 0 D S
U
V 2129 5143 T 75.7279 R
0 0 M
-150 40 D
30 -40 D
-30 -40 D
P clip fs P S 
U
2067 6063 M
-1 47 D
-5 39 D
-4 14 D
-1 2 D
-1 0 D
0 1 D
-1 0 D
0 1 D
-3 0 D
0 -1 D
-1 0 D
0 -1 D
-1 0 D
0 -2 D
-1 0 D
-5 -23 D
-3 -28 D
-2 -46 D
1 -48 D
4 -37 D
5 -19 D
1 0 D
1 -3 D
1 0 D
0 -1 D
3 0 D
0 1 D
1 0 D
0 1 D
1 0 D
1 4 D
1 0 D
4 21 D
2 16 D
2 27 D
1 33 D
P S
V 1920 4800 T 84.0059 R
N 0 0 M 1149 0 D S
U
V 2053 6063 T 84.0059 R
0 0 M
-150 40 D
30 -40 D
-30 -40 D
P clip fs P S 
U
3012 453 M
-1 2 D
-15 4 D
-35 4 D
-45 2 D
-82 1 D
-67 -4 D
-25 -4 D
-9 -4 D
1 -3 D
15 -4 D
35 -4 D
45 -2 D
82 -1 D
67 4 D
25 4 D
9 4 D
P S
V 2400 0 T 43.7966 R
N 0 0 M 535 0 D S
U
V 2872 453 T 43.7966 R
0 0 M
-150 40 D
30 -40 D
-30 -40 D
P clip fs P S 
U
2875 939 M
0 22 D
-1 0 D
0 9 D
-1 0 D
-1 11 D
-1 0 D
0 3 D
-1 0 D
0 2 D
-1 0 D
0 1 D
-3 -1 D
0 -1 D
-1 0 D
-1 -6 D
-1 0 D
-2 -25 D
-1 0 D
1 -43 D
2 -13 D
1 0 D
0 -3 D
1 0 D
0 -3 D
1 0 D
0 -1 D
1 0 D
0 -1 D
2 0 D
0 1 D
1 0 D
3 14 D
0 2 D
1 0 D
1 31 D
P S
V 2400 480 T 44.4344 R
N 0 0 M 535 0 D S
U
V 2868 939 T 44.4344 R
0 0 M
-150 40 D
30 -40 D
-30 -40 D
P clip fs P S 
U
2929 1424 M
-1 9 D
-2 5 D
-1 0 D
-2 5 D
-2 1 D
-5 6 D
-1 0 D
-1 2 D
-17 10 D
-18 5 D
-23 3 D
-19 -1 D
-15 -3 D
-11 -4 D
-13 -7 D
-5 -3 D
-1 -2 D
-2 -1 D
0 -1 D
-2 -1 D
0 -1 D
-2 -1 D
-2 -4 D
-1 0 D
-1 -3 D
-1 0 D
-3 -14 D
2 -11 D
2 -4 D
1 0 D
1 -3 D
1 0 D
1 -3 D
2 -1 D
0 -1 D
2 -1 D
0 -1 D
8 -5 D
1 -2 D
16 -7 D
10 -3 D
19 -3 D
10 -1 D
25 3 D
11 3 D
19 9 D
2 1 D
0 1 D
4 2 D
1 2 D
2 1 D
0 1 D
2 1 D
0 1 D
1 0 D
3 5 D
0 1 D
1 0 D
2 6 D
1 0 D
0 4 D
1 0 D
0 4 D
P S
V 2400 960 T 45.6596 R
N 0 0 M 529 0 D S
U
V 2854 1424 T 45.6596 R
0 0 M
-150 40 D
30 -40 D
-30 -40 D
P clip fs P S 
U
2833 1951 M
0 33 D
-1 0 D
0 15 D
-1 0 D
0 5 D
-1 0 D
-2 -21 D
-1 -49 D
2 -34 D
1 0 D
0 -2 D
1 0 D
0 5 D
1 0 D
0 15 D
1 0 D
0 32 D
P S
V 2400 1440 T 49.906 R
N 0 0 M 548 0 D S
U
V 2830 1951 T 49.906 R
0 0 M
-150 40 D
30 -40 D
-30 -40 D
P clip fs P S 
U
2810 2468 M
-2 53 D
-4 30 D
-3 10 D
-1 0 D
0 1 D
-1 0 D
0 1 D
-3 0 D
-4 -13 D
-4 -31 D
-2 -54 D
2 -54 D
4 -27 D
4 -11 D
3 0 D
0 1 D
1 0 D
4 13 D
3 25 D
2 33 D
1 21 D
P S
V 2400 1920 T 54.024 R
N 0 0 M 557 0 D S
U
V 2798 2468 T 54.024 R
0 0 M
-150 40 D
30 -40 D
-30 -40 D
P clip fs P S 
U
2779 3021 M
0 5 D
-1 0 D
0 3 D
-1 0 D
0 2 D
-1 0 D
-1 3 D
-1 0 D
0 1 D
-1 0 D
0 1 D
-1 0 D
0 1 D
-1 0 D
0 1 D
-3 1 D
0 1 D
-3 0 D
0 1 D
-14 1 D
0 -1 D
-3 0 D
0 -1 D
-2 0 D
0 -1 D
-2 0 D
0 -1 D
-1 0 D
0 -1 D
-4 -3 D
0 -1 D
-1 0 D
0 -1 D
-1 0 D
0 -2 D
-1 0 D
-2 -10 D
1 0 D
0 -5 D
1 0 D
2 -6 D
1 0 D
0 -1 D
1 0 D
1 -2 D
1 0 D
0 -1 D
1 0 D
0 -1 D
8 -3 D
10 -1 D
0 1 D
4 0 D
0 1 D
2 0 D
0 1 D
2 0 D
0 1 D
3 1 D
0 1 D
1 0 D
0 1 D
1 0 D
0 1 D
1 0 D
0 2 D
1 0 D
2 6 D
1 0 D
P S
V 2400 2400 T 60.1264 R
N 0 0 M 596 0 D S
U
V 2757 3021 T 60.1264 R
0 0 M
-150 40 D
30 -40 D
-30 -40 D
P clip fs P S 
U
2795 3482 M
-2 15 D
-8 17 D
-9 11 D
-12 10 D
-10 6 D
-3 1 D
-17 6 D
-19 3 D
-27 -1 D
-23 -7 D
-6 -4 D
-3 -1 D
-10 -7 D
-13 -12 D
-9 -15 D
-3 -13 D
-1 -15 D
4 -15 D
5 -9 D
9 -11 D
13 -12 D
18 -9 D
20 -5 D
23 -2 D
21 3 D
22 8 D
2 2 D
3 1 D
2 2 D
3 1 D
16 15 D
7 11 D
4 10 D
2 9 D
1 6 D
P S
V 2400 2880 T 62.9596 R
N 0 0 M 556 0 D S
U
V 2707 3482 T 62.9596 R
0 0 M
-150 40 D
30 -40 D
-30 -40 D
P clip fs P S 
U
2680 4092 M
-2 51 D
-5 40 D
-7 29 D
-6 14 D
-1 0 D
-2 4 D
-1 0 D
0 1 D
-1 0 D
0 1 D
-8 1 D
0 -1 D
-4 -3 D
0 -1 D
-1 0 D
-6 -12 D
-6 -22 D
-5 -31 D
-3 -37 D
-1 -61 D
4 -48 D
7 -36 D
7 -20 D
4 -6 D
1 0 D
0 -1 D
1 0 D
0 -1 D
1 0 D
0 -1 D
2 0 D
0 -1 D
6 1 D
4 5 D
1 0 D
1 3 D
1 0 D
3 8 D
5 16 D
6 33 D
4 48 D
1 25 D
P S
V 2400 3360 T 71.1306 R
N 0 0 M 654 0 D S
U
V 2650 4092 T 71.1306 R
0 0 M
-150 40 D
30 -40 D
-30 -40 D
P clip fs P S 
U
2674 4585 M
-3 35 D
-9 32 D
-12 25 D
-5 8 D
-2 1 D
-7 9 D
-2 3 D
-15 12 D
-5 2 D
-8 4 D
-16 3 D
-18 -1 D
-16 -7 D
-13 -8 D
-2 -3 D
-3 -2 D
-2 -3 D
-2 -1 D
-13 -19 D
-13 -27 D
-5 -19 D
-3 -18 D
-2 -33 D
3 -28 D
8 -30 D
14 -29 D
5 -8 D
2 -1 D
4 -6 D
2 -1 D
3 -4 D
2 -1 D
2 -3 D
11 -8 D
5 -2 D
13 -5 D
17 -2 D
18 4 D
16 9 D
7 5 D
2 3 D
3 2 D
2 3 D
2 1 D
15 23 D
11 26 D
6 26 D
2 26 D
1 5 D
P S
V 2400 3840 T 75.9897 R
N 0 0 M 648 0 D S
U
V 2586 4585 T 75.9897 R
0 0 M
-150 40 D
30 -40 D
-30 -40 D
P clip fs P S 
U
2627 5156 M
-1 15 D
-7 20 D
-7 12 D
-7 10 D
-4 3 D
-1 2 D
-6 4 D
-1 2 D
-20 13 D
-18 7 D
-24 5 D
-28 1 D
-25 -5 D
-18 -7 D
-19 -11 D
-4 -3 D
-1 -2 D
-6 -4 D
-2 -3 D
-3 -2 D
-13 -20 D
-4 -8 D
-4 -16 D
-1 -23 D
5 -19 D
9 -17 D
9 -12 D
2 -1 D
3 -4 D
18 -13 D
17 -9 D
20 -6 D
21 -3 D
27 1 D
21 5 D
23 10 D
18 13 D
5 4 D
2 3 D
2 1 D
12 17 D
2 5 D
6 17 D
2 15 D
0 1 D
P S
V 2400 4320 T 82.173 R
N 0 0 M 724 0 D S
U
V 2515 5156 T 82.173 R
0 0 M
-150 40 D
30 -40 D
-30 -40 D
P clip fs P S 
U
2523 5630 M
-1 10 D
-6 11 D
-1 0 D
-2 4 D
-3 2 D
-1 2 D
-18 11 D
-9 4 D
-19 5 D
-19 2 D
-28 -1 D
-19 -5 D
-8 -3 D
-13 -7 D
-9 -6 D
-3 -4 D
-1 0 D
-2 -4 D
-1 0 D
-4 -7 D
-3 -11 D
1 -13 D
3 -7 D
3 -5 D
1 0 D
2 -4 D
16 -12 D
22 -9 D
12 -3 D
19 -2 D
28 1 D
22 6 D
13 6 D
13 9 D
2 1 D
2 3 D
1 0 D
2 4 D
2 1 D
6 14 D
0 6 D
P S
V 2400 4800 T 87.3716 R
N 0 0 M 710 0 D S
U
V 2438 5630 T 87.3716 R
0 0 M
-150 40 D
30 -40 D
-30 -40 D
P clip fs P S 
U
3303 534 M
-90 0 D
1 0 D
0 -1 D
88 0 D
0 1 D
P S
V 2880 0 T 54.6857 R
N 0 0 M 534 0 D S
U
V 3258 534 T 54.6857 R
0 0 M
-150 40 D
30 -40 D
-30 -40 D
P clip fs P S 
U
3310 1016 M
-1 2 D
-1 0 D
0 1 D
-1 0 D
0 1 D
-5 1 D
0 1 D
-29 4 D
-31 1 D
-15 -1 D
0 -1 D
-14 -1 D
-5 -1 D
0 -1 D
-6 -1 D
0 -1 D
-4 -1 D
0 -1 D
-1 0 D
0 -1 D
-1 0 D
0 -2 D
1 0 D
0 -1 D
1 0 D
0 -1 D
1 0 D
0 -1 D
2 0 D
0 -1 D
6 -1 D
0 -1 D
25 -3 D
40 -1 D
11 1 D
0 1 D
12 1 D
8 2 D
0 1 D
6 2 D
0 1 D
1 0 D
P S
V 2880 480 T 55.1403 R
N 0 0 M 533 0 D S
U
V 3253 1016 T 55.1403 R
0 0 M
-150 40 D
30 -40 D
-30 -40 D
P clip fs P S 
U
3345 1513 M
0 5 D
-1 0 D
0 2 D
-1 0 D
-3 5 D
-4 2 D
0 1 D
-17 8 D
-22 6 D
-29 4 D
-38 2 D
-34 -3 D
-28 -6 D
-19 -7 D
-5 -3 D
0 -1 D
-3 -1 D
0 -1 D
-6 -5 D
-2 -7 D
1 -7 D
1 0 D
1 -3 D
1 0 D
0 -1 D
12 -8 D
20 -8 D
27 -5 D
23 -2 D
37 -1 D
35 4 D
27 7 D
20 10 D
1 2 D
1 0 D
0 1 D
1 0 D
0 1 D
1 0 D
2 5 D
1 0 D
P S
V 2880 960 T 57.016 R
N 0 0 M 540 0 D S
U
V 3239 1513 T 57.016 R
0 0 M
-150 40 D
30 -40 D
-30 -40 D
P clip fs P S 
U
3340 2023 M
0 2 D
-1 0 D
0 2 D
-4 2 D
0 1 D
-19 7 D
-27 5 D
-41 4 D
-52 1 D
-42 -3 D
-40 -7 D
-13 -5 D
-3 -1 D
0 -1 D
-3 -1 D
0 -1 D
-1 0 D
0 -1 D
-1 0 D
0 -1 D
-1 0 D
-1 -4 D
1 0 D
1 -3 D
3 -2 D
0 -1 D
5 -2 D
0 -1 D
25 -7 D
39 -5 D
40 -2 D
57 1 D
45 6 D
20 6 D
10 5 D
0 1 D
1 0 D
0 1 D
1 0 D
1 3 D
P S
V 2880 1440 T 60.052 R
N 0 0 M 553 0 D S
U
V 3216 2023 T 60.052 R
0 0 M
-150 40 D
30 -40 D
-30 -40 D
P clip fs P S 
U
3306 2580 M
-1 18 D
-8 25 D
-8 16 D
-2 1 D
-4 7 D
-2 1 D
-2 4 D
-2 1 D
-5 6 D
-2 1 D
-1 2 D
-17 12 D
-27 13 D
-22 5 D
-35 1 D
-29 -7 D
-21 -10 D
-9 -5 D
-1 -2 D
-7 -5 D
-3 -2 D
-1 -2 D
-9 -8 D
-12 -17 D
-6 -10 D
-7 -21 D
-2 -22 D
1 -21 D
4 -14 D
9 -20 D
10 -15 D
2 -1 D
8 -9 D
2 -1 D
1 -2 D
15 -11 D
22 -12 D
23 -6 D
19 -2 D
28 1 D
22 6 D
29 14 D
13 10 D
1 2 D
6 5 D
1 2 D
2 1 D
8 12 D
2 1 D
10 20 D
6 25 D
1 11 D
P S
V 2880 1920 T 65.3298 R
N 0 0 M 607 0 D S
U
V 3183 2580 T 65.3298 R
0 0 M
-150 40 D
30 -40 D
-30 -40 D
P clip fs P S 
U
3149 3044 M
-2 96 D
-3 28 D
-2 3 D
0 -1 D
-1 0 D
-3 -35 D
-2 -69 D
1 -106 D
3 -36 D
1 -5 D
1 0 D
0 -1 D
1 0 D
3 24 D
2 59 D
1 41 D
P S
V 2880 2400 T 67.8527 R
N 0 0 M 576 0 D S
U
V 3142 3044 T 67.8527 R
0 0 M
-150 40 D
30 -40 D
-30 -40 D
P clip fs P S 
U
3125 3749 M
-1 27 D
-6 27 D
-9 19 D
-1 2 D
-1 0 D
-3 4 D
-1 0 D
0 1 D
-1 0 D
0 1 D
-3 1 D
0 1 D
-3 0 D
0 1 D
-6 0 D
0 -1 D
-3 0 D
0 -1 D
-5 -3 D
-3 -4 D
-1 0 D
-5 -9 D
-6 -16 D
-5 -26 D
-1 -45 D
6 -31 D
6 -16 D
1 0 D
2 -5 D
1 0 D
2 -4 D
1 0 D
0 -1 D
1 0 D
1 -2 D
1 0 D
0 -1 D
3 -1 D
0 -1 D
8 -2 D
6 2 D
0 1 D
5 3 D
0 1 D
1 0 D
0 1 D
1 0 D
2 4 D
1 0 D
2 5 D
6 14 D
5 23 D
2 25 D
0 4 D
P S
V 2880 2880 T 76.2282 R
N 0 0 M 774 0 D S
U
V 3093 3749 T 76.2282 R
0 0 M
-150 40 D
30 -40 D
-30 -40 D
P clip fs P S 
U
3116 4256 M
-1 26 D
-7 33 D
-7 20 D
-11 21 D
-10 13 D
-2 1 D
-3 4 D
-14 10 D
-15 6 D
-16 1 D
-18 -6 D
-15 -11 D
-3 -2 D
-5 -7 D
-2 -1 D
-15 -25 D
-8 -22 D
-5 -21 D
-3 -26 D
-1 -18 D
3 -30 D
7 -29 D
9 -23 D
13 -21 D
7 -8 D
4 -3 D
1 -2 D
5 -4 D
3 -1 D
11 -6 D
14 -3 D
16 1 D
10 4 D
14 9 D
1 2 D
7 5 D
8 12 D
2 1 D
15 31 D
7 26 D
3 25 D
1 16 D
P S
V 2880 3360 T 80.1423 R
N 0 0 M 790 0 D S
U
V 3036 4256 T 80.1423 R
0 0 M
-150 40 D
30 -40 D
-30 -40 D
P clip fs P S 
U
2999 4699 M
-2 1 D
0 1 D
-8 1 D
0 1 D
-11 0 D
0 1 D
-13 0 D
0 -1 D
-17 -1 D
0 -1 D
-4 -1 D
0 -2 D
2 0 D
0 -1 D
2 0 D
0 -1 D
29 -2 D
12 1 D
0 1 D
8 1 D
0 1 D
P S
V 2880 3840 T 83.9281 R
N 0 0 M 744 0 D S
U
V 2971 4699 T 83.9281 R
0 0 M
-150 40 D
30 -40 D
-30 -40 D
P clip fs P S 
U
2912 5603 M
-1 56 D
-5 47 D
-2 9 D
-1 0 D
0 2 D
-1 0 D
-1 2 D
-2 0 D
-3 -10 D
-2 -11 D
-3 -32 D
-2 -49 D
1 -72 D
4 -42 D
1 -5 D
1 0 D
1 -7 D
1 -3 D
1 0 D
0 -1 D
3 0 D
1 4 D
1 0 D
0 3 D
1 0 D
4 33 D
2 38 D
1 36 D
P S
V 2880 4320 T 89.0881 R
N 0 0 M 1163 0 D S
U
V 2900 5603 T 89.0881 R
0 0 M
-150 40 D
30 -40 D
-30 -40 D
P clip fs P S 
U
2849 5518 M
0 6 D
-1 0 D
-1 10 D
-1 0 D
0 3 D
-1 0 D
-3 8 D
-1 0 D
-1 3 D
-1 0 D
0 1 D
-1 0 D
0 1 D
-1 0 D
0 1 D
-1 0 D
0 1 D
-1 0 D
0 1 D
-2 0 D
0 1 D
-7 2 D
-3 1 D
-9 -3 D
0 -1 D
-3 -1 D
0 -1 D
-1 0 D
0 -1 D
-1 0 D
0 -1 D
-1 0 D
0 -1 D
-1 0 D
-1 -3 D
-1 0 D
0 -2 D
-1 0 D
-4 -13 D
0 -1 D
-1 0 D
-1 -13 D
2 -13 D
1 0 D
0 -3 D
1 0 D
0 -3 D
1 0 D
0 -2 D
1 0 D
2 -5 D
1 0 D
0 -1 D
1 0 D
1 -2 D
1 0 D
0 -1 D
1 0 D
0 -1 D
1 0 D
0 -1 D
1 0 D
0 -1 D
2 0 D
0 -1 D
2 0 D
0 -1 D
3 0 D
0 -1 D
10 1 D
4 2 D
0 1 D
1 0 D
0 1 D
4 3 D
0 1 D
1 0 D
0 1 D
1 0 D
1 3 D
1 0 D
0 2 D
1 0 D
0 2 D
1 0 D
2 9 D
1 0 D
P S
V 2880 4800 T 94.4902 R
N 0 0 M 601 0 D S
U
V 2824 5518 T 94.4902 R
0 0 M
-150 40 D
30 -40 D
-30 -40 D
P clip fs P S 
U
3773 609 M
-1 6 D
-6 5 D
-1 2 D
-16 8 D
-17 5 D
-32 6 D
-36 3 D
-30 1 D
-50 -4 D
-37 -8 D
-19 -8 D
-7 -4 D
0 -1 D
-3 -1 D
-4 -7 D
-1 -4 D
1 -4 D
1 0 D
0 -2 D
1 0 D
0 -1 D
1 0 D
2 -3 D
2 -1 D
0 -1 D
19 -9 D
25 -7 D
26 -4 D
41 -3 D
49 1 D
37 5 D
27 7 D
15 7 D
6 3 D
1 2 D
1 0 D
0 1 D
2 1 D
0 1 D
1 0 D
0 1 D
1 0 D
0 2 D
1 0 D
0 4 D
P S
V 3360 0 T 65.0295 R
N 0 0 M 551 0 D S
U
V 3643 609 T 65.0295 R
0 0 M
-150 40 D
30 -40 D
-30 -40 D
P clip fs P S 
U
3650 1094 M
-2 33 D
-2 11 D
-1 0 D
0 4 D
-1 0 D
0 3 D
-1 0 D
0 2 D
-1 0 D
0 2 D
-1 0 D
0 1 D
-4 0 D
0 -1 D
-1 0 D
0 -1 D
-1 0 D
0 -2 D
-1 0 D
-1 -6 D
-1 0 D
-3 -25 D
-1 -40 D
1 0 D
1 -17 D
2 -10 D
1 0 D
0 -4 D
1 0 D
1 -4 D
1 0 D
1 -2 D
1 0 D
0 -1 D
2 0 D
0 1 D
1 0 D
0 1 D
1 0 D
0 2 D
1 0 D
0 2 D
1 0 D
4 23 D
2 27 D
P S
V 3360 480 T 65.5787 R
N 0 0 M 554 0 D S
U
V 3639 1094 T 65.5787 R
0 0 M
-150 40 D
30 -40 D
-30 -40 D
P clip fs P S 
U
3639 1572 M
-2 36 D
-4 19 D
-2 6 D
-1 0 D
-3 5 D
-1 0 D
0 1 D
-3 0 D
0 -1 D
-1 0 D
0 -1 D
-1 0 D
0 -1 D
-1 0 D
0 -2 D
-1 0 D
-5 -19 D
-3 -26 D
-1 -22 D
2 -30 D
4 -20 D
1 0 D
1 -6 D
1 0 D
0 -2 D
1 0 D
0 -2 D
1 0 D
0 -1 D
1 0 D
0 -1 D
2 0 D
0 -1 D
1 0 D
0 1 D
2 0 D
0 1 D
1 0 D
0 1 D
1 0 D
2 6 D
1 0 D
1 6 D
1 0 D
3 23 D
2 29 D
P S
V 3360 960 T 66.6058 R
N 0 0 M 546 0 D S
U
V 3625 1572 T 66.6058 R
0 0 M
-150 40 D
30 -40 D
-30 -40 D
P clip fs P S 
U
3627 2057 M
-1 44 D
-5 37 D
-5 20 D
-5 13 D
-1 0 D
-3 5 D
-1 0 D
0 1 D
-6 2 D
0 -1 D
-2 0 D
0 -1 D
-3 -1 D
-1 -3 D
-1 0 D
-7 -18 D
-6 -28 D
-3 -28 D
-2 -48 D
2 -43 D
4 -29 D
7 -27 D
6 -11 D
1 -2 D
1 0 D
0 -1 D
1 0 D
0 -1 D
2 0 D
0 -1 D
5 0 D
0 1 D
4 2 D
0 2 D
1 0 D
0 1 D
1 0 D
1 4 D
1 0 D
6 18 D
6 34 D
3 44 D
0 13 D
P S
V 3360 1440 T 68.6512 R
N 0 0 M 543 0 D S
U
V 3601 2057 T 68.6512 R
0 0 M
-150 40 D
30 -40 D
-30 -40 D
P clip fs P S 
U
3671 2614 M
-1 23 D
-8 29 D
-9 19 D
-4 7 D
-2 1 D
-4 7 D
-2 1 D
-3 5 D
-6 5 D
-1 2 D
-22 15 D
-19 7 D
-19 2 D
-20 -1 D
-19 -7 D
-17 -10 D
-8 -6 D
-1 -2 D
-2 -1 D
-2 -3 D
-2 -1 D
-7 -10 D
-2 -1 D
-14 -25 D
-8 -26 D
-3 -35 D
4 -29 D
5 -17 D
15 -29 D
6 -8 D
2 -1 D
9 -10 D
2 -1 D
1 -2 D
22 -14 D
19 -6 D
21 -2 D
20 3 D
19 8 D
17 11 D
1 2 D
3 2 D
1 2 D
6 5 D
14 20 D
10 20 D
7 31 D
1 18 D
P S
V 3360 1920 T 73.2444 R
N 0 0 M 605 0 D S
U
V 3569 2614 T 73.2444 R
0 0 M
-150 40 D
30 -40 D
-30 -40 D
P clip fs P S 
U
3659 3081 M
-3 12 D
-4 7 D
-14 12 D
-4 3 D
-3 1 D
-14 7 D
-18 6 D
-29 6 D
-35 3 D
-37 -1 D
-34 -6 D
-22 -7 D
-23 -11 D
-3 -3 D
-3 -1 D
-8 -9 D
-2 -1 D
-5 -11 D
-1 -12 D
5 -11 D
4 -6 D
10 -8 D
7 -5 D
5 -2 D
12 -6 D
32 -9 D
29 -4 D
50 -1 D
28 4 D
28 7 D
23 10 D
13 9 D
9 8 D
6 13 D
1 5 D
P S
V 3360 2400 T 76.1561 R
N 0 0 M 581 0 D S
U
V 3528 3081 T 76.1561 R
0 0 M
-150 40 D
30 -40 D
-30 -40 D
P clip fs P S 
U
3508 3490 M
0 7 D
-1 0 D
0 3 D
-1 0 D
-1 4 D
-1 0 D
0 2 D
-1 0 D
0 1 D
-1 0 D
0 1 D
-1 0 D
-2 3 D
-1 0 D
0 1 D
-1 0 D
0 1 D
-3 1 D
0 1 D
-2 0 D
0 1 D
-2 0 D
0 1 D
-3 0 D
0 1 D
-11 1 D
-6 -1 D
0 -1 D
-3 0 D
0 -1 D
-4 -1 D
0 -1 D
-3 -1 D
0 -1 D
-5 -4 D
0 -1 D
-1 0 D
0 -1 D
-1 0 D
-4 -11 D
0 -4 D
-1 0 D
1 -8 D
1 0 D
0 -3 D
1 0 D
0 -2 D
1 0 D
0 -2 D
1 0 D
2 -4 D
1 0 D
0 -1 D
1 0 D
0 -1 D
1 0 D
0 -1 D
1 0 D
0 -1 D
3 -1 D
0 -1 D
10 -3 D
0 -1 D
13 0 D
0 1 D
8 2 D
0 1 D
2 0 D
0 1 D
1 0 D
0 1 D
2 0 D
0 1 D
1 0 D
0 1 D
1 0 D
0 1 D
1 0 D
0 1 D
1 0 D
2 4 D
1 0 D
0 2 D
1 0 D
2 11 D
P S
V 3360 2880 T 79.0169 R
N 0 0 M 502 0 D S
U
V 3478 3490 T 79.0169 R
0 0 M
-150 40 D
30 -40 D
-30 -40 D
P clip fs P S 
U
3464 4284 M
0 2 D
-1 0 D
-1 8 D
-1 3 D
-1 0 D
0 2 D
-1 0 D
-1 3 D
-1 0 D
0 1 D
-1 0 D
0 1 D
-1 0 D
-4 5 D
-1 0 D
0 1 D
-3 1 D
0 1 D
-14 5 D
-2 0 D
0 1 D
-10 1 D
0 -1 D
-13 -1 D
-7 -2 D
0 -1 D
-2 0 D
0 -1 D
-5 -2 D
0 -1 D
-3 -1 D
0 -1 D
-1 0 D
0 -1 D
-1 0 D
0 -1 D
-1 0 D
-3 -5 D
-1 0 D
-1 -3 D
-1 0 D
-3 -13 D
1 -9 D
1 -3 D
1 0 D
0 -2 D
1 0 D
0 -2 D
1 0 D
1 -3 D
1 0 D
0 -1 D
1 0 D
0 -1 D
1 0 D
1 -2 D
1 0 D
0 -1 D
1 0 D
0 -1 D
1 0 D
0 -1 D
2 0 D
0 -1 D
7 -3 D
0 -1 D
2 0 D
0 -1 D
7 -1 D
0 -1 D
16 -1 D
0 1 D
10 1 D
0 1 D
5 1 D
3 1 D
0 1 D
2 0 D
0 1 D
1 0 D
0 1 D
5 3 D
2 1 D
0 1 D
1 0 D
3 5 D
1 0 D
1 4 D
1 0 D
0 2 D
1 0 D
0 3 D
1 0 D
0 6 D
1 0 D
P S
V 3360 3360 T 86.208 R
N 0 0 M 806 0 D S
U
V 3421 4284 T 86.208 R
0 0 M
-150 40 D
30 -40 D
-30 -40 D
P clip fs P S 
U
3432 4896 M
0 3 D
-1 0 D
0 2 D
-1 0 D
-1 3 D
-1 0 D
0 1 D
-5 3 D
0 1 D
-14 6 D
-20 5 D
-24 2 D
-35 -1 D
-23 -5 D
-16 -7 D
0 -1 D
-2 0 D
0 -1 D
-1 0 D
0 -1 D
-1 0 D
0 -1 D
-2 -1 D
0 -1 D
-1 0 D
-2 -7 D
1 -6 D
1 0 D
0 -1 D
1 0 D
3 -4 D
1 0 D
0 -1 D
15 -7 D
21 -5 D
19 -2 D
21 -1 D
27 3 D
22 6 D
0 1 D
4 1 D
0 1 D
3 1 D
5 3 D
0 1 D
1 0 D
0 1 D
1 0 D
0 1 D
1 0 D
0 1 D
1 0 D
1 4 D
1 0 D
0 2 D
P S
V 3360 3840 T 90.1689 R
N 0 0 M 936 0 D S
U
V 3357 4896 T 90.1689 R
0 0 M
-150 40 D
30 -40 D
-30 -40 D
P clip fs P S 
U
3312 5376 M
-1 26 D
-4 21 D
-7 19 D
-2 4 D
-1 0 D
-3 5 D
-3 1 D
0 1 D
-8 1 D
-2 -1 D
0 -1 D
-3 -1 D
0 -1 D
-1 0 D
-6 -10 D
-4 -11 D
-5 -22 D
-2 -29 D
1 -28 D
5 -25 D
3 -9 D
1 0 D
2 -7 D
1 0 D
1 -3 D
1 0 D
2 -4 D
3 -1 D
0 -1 D
1 0 D
0 -1 D
3 0 D
0 -1 D
4 0 D
0 1 D
4 1 D
0 1 D
5 4 D
5 11 D
1 0 D
6 25 D
3 28 D
0 6 D
P S
V 3360 4320 T 94.0115 R
N 0 0 M 939 0 D S
U
V 3286 5376 T 94.0115 R
0 0 M
-150 40 D
30 -40 D
-30 -40 D
P clip fs P S 
U
3278 5568 M
-2 16 D
-7 18 D
-11 14 D
-10 8 D
0 1 D
-18 8 D
-14 3 D
-22 -1 D
-14 -5 D
-14 -9 D
-5 -4 D
-1 -2 D
-4 -3 D
-10 -17 D
-4 -13 D
-2 -17 D
4 -20 D
5 -11 D
7 -11 D
5 -4 D
1 -2 D
18 -12 D
18 -5 D
19 -1 D
19 5 D
8 5 D
3 1 D
12 10 D
2 3 D
1 0 D
9 14 D
6 20 D
1 9 D
P S
V 3360 4800 T 101.121 R
N 0 0 M 662 0 D S
U
V 3209 5568 T 101.121 R
0 0 M
-150 40 D
30 -40 D
-30 -40 D
P clip fs P S 
U
4047 678 M
-2 14 D
-1 0 D
-2 6 D
-1 0 D
-1 3 D
-1 0 D
0 1 D
-1 0 D
0 1 D
-1 0 D
0 1 D
-3 1 D
0 1 D
-5 1 D
-5 -1 D
0 -1 D
-3 -1 D
0 -1 D
-1 0 D
0 -1 D
-1 0 D
0 -1 D
-1 0 D
-1 -3 D
-1 0 D
-2 -6 D
-1 0 D
0 -3 D
-1 0 D
0 -6 D
-1 0 D
1 -16 D
1 0 D
1 -6 D
1 0 D
0 -2 D
1 0 D
1 -3 D
1 0 D
0 -1 D
1 0 D
2 -3 D
1 0 D
0 -1 D
4 -1 D
0 -1 D
6 0 D
0 1 D
2 0 D
0 1 D
2 0 D
0 1 D
3 2 D
0 1 D
1 0 D
0 1 D
1 0 D
1 3 D
1 0 D
0 2 D
1 0 D
2 12 D
1 0 D
0 4 D
P S
V 3840 0 T 74.4214 R
N 0 0 M 584 0 D S
U
V 4029 678 T 74.4214 R
0 0 M
-150 40 D
30 -40 D
-30 -40 D
P clip fs P S 
U
4091 1165 M
-1 23 D
-6 24 D
-10 21 D
-7 9 D
-1 3 D
-13 12 D
-15 7 D
-13 2 D
-12 -1 D
-12 -5 D
-14 -11 D
-9 -11 D
-4 -5 D
-1 -3 D
-9 -19 D
-5 -23 D
-2 -25 D
2 -25 D
7 -24 D
4 -9 D
7 -12 D
3 -5 D
18 -17 D
13 -6 D
17 -2 D
13 3 D
8 5 D
3 1 D
15 14 D
9 13 D
2 5 D
4 8 D
6 21 D
3 23 D
0 7 D
P S
V 3840 480 T 74.9377 R
N 0 0 M 589 0 D S
U
V 4024 1165 T 74.9377 R
0 0 M
-150 40 D
30 -40 D
-30 -40 D
P clip fs P S 
U
4033 1649 M
-1 17 D
-4 14 D
-1 0 D
0 2 D
-1 0 D
0 2 D
-1 0 D
-1 3 D
-1 0 D
-1 3 D
-1 0 D
0 1 D
-1 0 D
0 1 D
-1 0 D
0 1 D
-3 1 D
0 1 D
-9 1 D
0 -1 D
-4 -1 D
0 -1 D
-2 0 D
0 -1 D
-1 0 D
-2 -4 D
-1 0 D
-1 -3 D
-1 0 D
-3 -8 D
-1 0 D
-3 -17 D
-1 -20 D
3 -15 D
2 -7 D
1 0 D
1 -4 D
1 0 D
1 -3 D
1 0 D
1 -3 D
1 0 D
0 -1 D
1 0 D
0 -1 D
1 0 D
0 -1 D
1 0 D
0 -1 D
7 -2 D
6 0 D
0 1 D
2 0 D
0 1 D
1 0 D
0 1 D
3 2 D
0 1 D
1 0 D
0 1 D
1 0 D
1 3 D
1 0 D
3 8 D
1 0 D
3 16 D
0 1 D
1 0 D
0 11 D
P S
V 3840 960 T 76.125 R
N 0 0 M 590 0 D S
U
V 4010 1649 T 76.125 R
0 0 M
-150 40 D
30 -40 D
-30 -40 D
P clip fs P S 
U
3991 2132 M
-1 93 D
-2 23 D
-1 0 D
0 2 D
-1 -5 D
-1 0 D
-2 -67 D
-1 -76 D
2 -70 D
2 -17 D
1 0 D
2 17 D
2 74 D
0 24 D
P S
V 3840 1440 T 78.0301 R
N 0 0 M 588 0 D S
U
V 3987 2132 T 78.0301 R
0 0 M
-150 40 D
30 -40 D
-30 -40 D
P clip fs P S 
U
4003 2642 M
-2 9 D
-1 0 D
0 2 D
-1 0 D
-1 3 D
-1 0 D
-5 6 D
-1 0 D
0 1 D
-1 0 D
0 1 D
-2 0 D
0 1 D
-1 0 D
0 1 D
-2 0 D
0 1 D
-2 0 D
0 1 D
-2 0 D
0 1 D
-3 0 D
0 1 D
-3 0 D
0 1 D
-3 0 D
0 1 D
-23 2 D
0 -1 D
-12 -1 D
-15 -6 D
0 -1 D
-3 -1 D
0 -1 D
-1 0 D
0 -1 D
-2 0 D
0 -1 D
-1 0 D
0 -1 D
-1 0 D
-3 -5 D
-1 0 D
-3 -8 D
-1 -8 D
4 -10 D
1 0 D
3 -5 D
1 0 D
0 -1 D
3 -1 D
0 -1 D
1 0 D
0 -1 D
3 -1 D
0 -1 D
17 -6 D
20 -2 D
0 1 D
13 1 D
0 1 D
3 0 D
0 1 D
3 0 D
0 1 D
3 0 D
0 1 D
2 0 D
0 1 D
2 0 D
0 1 D
2 0 D
0 1 D
1 0 D
0 1 D
2 0 D
0 1 D
1 0 D
0 1 D
1 0 D
0 1 D
5 4 D
0 1 D
1 0 D
1 3 D
1 0 D
0 2 D
1 0 D
2 8 D
P S
V 3840 1920 T 80.9976 R
N 0 0 M 611 0 D S
U
V 3954 2642 T 80.9976 R
0 0 M
-150 40 D
30 -40 D
-30 -40 D
P clip fs P S 
U
3975 3127 M
-1 0 D
0 1 D
-41 2 D
-60 0 D
0 -1 D
-14 0 D
0 -1 D
-8 -1 D
4 -1 D
0 -1 D
65 -2 D
19 0 D
0 1 D
22 0 D
0 1 D
14 1 D
P S
V 3840 2400 T 84.2403 R
N 0 0 M 610 0 D S
U
V 3913 3127 T 84.2403 R
0 0 M
-150 40 D
30 -40 D
-30 -40 D
P clip fs P S 
U
3917 3833 M
-2 13 D
-2 5 D
-1 0 D
0 2 D
-1 0 D
-2 4 D
-1 0 D
-2 4 D
-1 0 D
0 1 D
-2 1 D
0 1 D
-4 2 D
0 1 D
-11 6 D
-13 4 D
-18 1 D
-15 -4 D
-11 -6 D
-5 -3 D
0 -1 D
-1 0 D
-1 -2 D
-1 0 D
0 -1 D
-1 0 D
-1 -2 D
-1 0 D
-3 -6 D
-1 0 D
-4 -11 D
-1 -15 D
4 -12 D
1 -2 D
1 0 D
2 -5 D
1 0 D
0 -1 D
2 -1 D
0 -1 D
1 0 D
1 -2 D
1 0 D
0 -1 D
1 0 D
0 -1 D
5 -3 D
0 -1 D
3 -1 D
14 -6 D
17 -2 D
16 2 D
13 6 D
3 1 D
0 1 D
2 1 D
0 1 D
4 2 D
0 1 D
2 1 D
0 1 D
1 0 D
3 5 D
1 0 D
1 3 D
1 0 D
0 2 D
1 0 D
3 11 D
0 1 D
1 0 D
0 5 D
P S
V 3840 2880 T 88.561 R
N 0 0 M 833 0 D S
U
V 3864 3833 T 88.561 R
0 0 M
-150 40 D
30 -40 D
-30 -40 D
P clip fs P S 
U
3813 4433 M
0 5 D
-1 0 D
0 3 D
-1 0 D
0 1 D
-1 0 D
0 1 D
-1 0 D
0 1 D
-6 -1 D
0 -2 D
-1 0 D
-1 -5 D
-1 0 D
1 -9 D
1 0 D
0 -2 D
1 0 D
1 -2 D
1 0 D
0 -1 D
4 0 D
0 1 D
1 0 D
0 1 D
1 0 D
1 4 D
1 0 D
P S
V 3840 3360 T 91.7732 R
N 0 0 M 954 0 D S
U
V 3807 4433 T 91.7732 R
0 0 M
-150 40 D
30 -40 D
-30 -40 D
P clip fs P S 
U
3762 4552 M
-1 51 D
-4 44 D
-5 25 D
-3 9 D
-1 0 D
0 2 D
-1 0 D
0 2 D
-1 0 D
0 1 D
-1 0 D
0 1 D
-1 0 D
0 1 D
-4 -1 D
-5 -9 D
-5 -20 D
-4 -34 D
-3 -48 D
1 -79 D
5 -46 D
5 -23 D
4 -9 D
1 0 D
0 -1 D
1 0 D
0 -1 D
1 0 D
0 -1 D
4 1 D
0 1 D
1 0 D
6 15 D
5 28 D
3 36 D
2 48 D
0 5 D
P S
V 3840 3840 T 97.8036 R
N 0 0 M 599 0 D S
U
V 3742 4552 T 97.8036 R
0 0 M
-150 40 D
30 -40 D
-30 -40 D
P clip fs P S 
U
3718 5111 M
-2 26 D
-5 19 D
-8 17 D
-5 8 D
-1 0 D
-2 4 D
-11 8 D
-13 3 D
-4 0 D
0 -1 D
-4 0 D
0 -1 D
-7 -3 D
-6 -4 D
-1 -2 D
-1 0 D
-2 -4 D
-2 -1 D
-9 -15 D
-7 -25 D
-2 -15 D
-1 -24 D
5 -28 D
6 -17 D
3 -5 D
2 -4 D
1 0 D
4 -7 D
2 -1 D
1 -2 D
1 0 D
1 -2 D
2 -1 D
0 -1 D
3 -1 D
0 -1 D
13 -4 D
11 1 D
3 1 D
0 1 D
4 1 D
0 1 D
3 1 D
1 2 D
1 0 D
1 2 D
2 1 D
1 2 D
1 0 D
4 7 D
1 0 D
10 23 D
4 19 D
2 21 D
P S
V 3840 4320 T 102.025 R
N 0 0 M 689 0 D S
U
V 3671 5111 T 102.025 R
0 0 M
-150 40 D
30 -40 D
-30 -40 D
P clip fs P S 
U
3646 5904 M
-1 23 D
-5 20 D
-7 16 D
-10 15 D
-3 2 D
-1 2 D
-8 5 D
0 1 D
-11 3 D
-9 1 D
-12 -4 D
-5 -3 D
0 -1 D
-4 -2 D
-3 -4 D
-1 0 D
-10 -16 D
-7 -17 D
-4 -17 D
-2 -22 D
1 -23 D
6 -24 D
5 -11 D
5 -9 D
7 -9 D
7 -6 D
0 -1 D
5 -2 D
0 -1 D
8 -2 D
0 -1 D
9 -1 D
0 1 D
9 1 D
11 6 D
0 1 D
4 2 D
3 4 D
1 0 D
10 16 D
3 7 D
6 19 D
3 22 D
0 8 D
P S
V 3840 4800 T 102.53 R
N 0 0 M 1011 0 D S
U
V 3595 5904 T 102.53 R
0 0 M
-150 40 D
30 -40 D
-30 -40 D
P clip fs P S 
U
4448 740 M
-1 30 D
-5 25 D
-7 17 D
-4 7 D
-3 5 D
-1 0 D
0 1 D
-1 0 D
0 1 D
-4 2 D
0 1 D
-2 0 D
0 1 D
-7 1 D
-4 -1 D
0 -1 D
-2 0 D
0 -1 D
-4 -2 D
0 -1 D
-1 0 D
0 -1 D
-1 0 D
-3 -5 D
-1 0 D
-3 -7 D
-6 -15 D
-4 -17 D
-3 -26 D
-1 -15 D
2 -28 D
6 -29 D
8 -19 D
1 0 D
2 -4 D
1 0 D
4 -5 D
1 0 D
0 -1 D
1 0 D
0 -1 D
7 -2 D
8 1 D
2 1 D
0 1 D
1 0 D
0 1 D
5 4 D
0 1 D
1 0 D
2 4 D
1 0 D
8 20 D
5 23 D
2 26 D
0 7 D
P S
V 4320 0 T 82.7249 R
N 0 0 M 626 0 D S
U
V 4414 740 T 82.7249 R
0 0 M
-150 40 D
30 -40 D
-30 -40 D
P clip fs P S 
U
4526 1227 M
-1 6 D
-1 0 D
0 2 D
-1 0 D
-2 4 D
-2 1 D
0 1 D
-2 1 D
0 1 D
-13 8 D
-20 7 D
-16 4 D
-28 4 D
-30 2 D
-44 -3 D
-28 -6 D
-17 -6 D
-15 -8 D
-8 -7 D
0 -1 D
-1 0 D
-3 -8 D
1 -8 D
1 -3 D
1 0 D
2 -4 D
2 -1 D
0 -1 D
5 -3 D
0 -1 D
16 -8 D
28 -8 D
28 -4 D
42 -2 D
33 3 D
30 6 D
23 9 D
11 7 D
0 1 D
2 1 D
0 1 D
2 1 D
0 1 D
1 0 D
2 5 D
1 0 D
1 5 D
P S
V 4320 480 T 83.1466 R
N 0 0 M 632 0 D S
U
V 4410 1227 T 83.1466 R
0 0 M
-150 40 D
30 -40 D
-30 -40 D
P clip fs P S 
U
4477 1715 M
-3 15 D
-7 13 D
-1 2 D
-2 1 D
-4 5 D
-1 0 D
-3 4 D
-10 7 D
-3 1 D
-20 8 D
-19 3 D
-28 -1 D
-17 -5 D
-11 -5 D
-11 -7 D
-2 -1 D
-3 -4 D
-3 -2 D
-8 -11 D
-5 -13 D
-1 -19 D
5 -13 D
2 -4 D
2 -1 D
5 -8 D
6 -4 D
3 -4 D
9 -5 D
13 -6 D
20 -5 D
26 -1 D
23 5 D
7 3 D
15 8 D
8 6 D
2 3 D
3 2 D
4 7 D
2 1 D
5 13 D
2 11 D
P S
V 4320 960 T 84.2757 R
N 0 0 M 638 0 D S
U
V 4396 1715 T 84.2757 R
0 0 M
-150 40 D
30 -40 D
-30 -40 D
P clip fs P S 
U
4472 2264 M
-1 14 D
-6 16 D
-3 5 D
-3 5 D
-12 14 D
-10 8 D
-5 2 D
-14 8 D
-22 6 D
-15 2 D
-10 1 D
-19 -2 D
-20 -5 D
-13 -6 D
-16 -10 D
-8 -7 D
-1 -2 D
-6 -5 D
-1 -3 D
-7 -10 D
-5 -13 D
-2 -13 D
-1 -8 D
3 -17 D
8 -17 D
5 -7 D
4 -5 D
5 -4 D
3 -4 D
5 -4 D
3 -1 D
13 -8 D
22 -8 D
22 -3 D
28 1 D
23 7 D
11 5 D
17 11 D
3 2 D
14 17 D
8 17 D
3 16 D
0 3 D
P S
V 4320 1440 T 86.3675 R
N 0 0 M 705 0 D S
U
V 4372 2264 T 86.3675 R
0 0 M
-150 40 D
30 -40 D
-30 -40 D
P clip fs P S 
U
4453 2792 M
-1 4 D
-1 0 D
-4 5 D
-3 1 D
0 1 D
-10 4 D
-26 7 D
-45 5 D
-64 -1 D
-29 -4 D
-28 -8 D
-3 -1 D
0 -1 D
-8 -5 D
-2 -3 D
-1 0 D
0 -2 D
-1 0 D
0 -4 D
1 0 D
0 -2 D
1 0 D
2 -3 D
1 0 D
0 -1 D
1 0 D
0 -1 D
15 -7 D
8 -2 D
24 -5 D
31 -3 D
54 -1 D
43 5 D
26 7 D
5 2 D
5 2 D
0 1 D
4 2 D
0 1 D
3 2 D
0 1 D
1 0 D
0 3 D
1 0 D
P S
V 4320 1920 T 88.6928 R
N 0 0 M 752 0 D S
U
V 4340 2792 T 88.6928 R
0 0 M
-150 40 D
30 -40 D
-30 -40 D
P clip fs P S 
U
4357 3187 M
-3 28 D
-9 23 D
-4 7 D
-5 8 D
-7 8 D
-8 5 D
0 1 D
-14 5 D
-13 1 D
-15 -5 D
-6 -4 D
0 -1 D
-7 -5 D
-2 -3 D
-2 -1 D
-9 -14 D
-1 -3 D
-7 -18 D
-4 -25 D
1 -27 D
5 -20 D
5 -11 D
8 -14 D
3 -4 D
3 -2 D
3 -4 D
4 -2 D
1 -2 D
13 -6 D
13 -2 D
12 2 D
9 4 D
1 2 D
8 5 D
10 12 D
1 3 D
7 13 D
6 19 D
3 25 D
P S
V 4320 2400 T 91.5427 R
N 0 0 M 667 0 D S
U
V 4299 3187 T 91.5427 R
0 0 M
-150 40 D
30 -40 D
-30 -40 D
P clip fs P S 
U
4333 3718 M
-3 30 D
-5 19 D
-11 25 D
-14 20 D
-19 15 D
-3 1 D
-13 5 D
-13 2 D
-16 -1 D
-15 -6 D
-8 -5 D
-14 -11 D
-19 -29 D
-8 -21 D
-5 -28 D
-1 -24 D
3 -25 D
7 -22 D
7 -16 D
16 -23 D
4 -3 D
2 -3 D
9 -7 D
3 -1 D
15 -7 D
13 -2 D
4 -1 D
15 2 D
13 5 D
6 4 D
3 1 D
9 7 D
3 4 D
3 2 D
17 26 D
7 17 D
6 27 D
2 21 D
P S
V 4320 2880 T 94.8132 R
N 0 0 M 721 0 D S
U
V 4249 3718 T 94.8132 R
0 0 M
-150 40 D
30 -40 D
-30 -40 D
P clip fs P S 
U
4205 4360 M
-1 18 D
-1 5 D
-1 0 D
-1 7 D
-1 0 D
-2 6 D
-1 0 D
0 1 D
-1 0 D
0 1 D
-1 0 D
0 1 D
-2 0 D
0 1 D
-1 0 D
0 -1 D
-3 0 D
0 -1 D
-1 0 D
-1 -3 D
-1 0 D
-1 -4 D
-1 0 D
-2 -10 D
-1 0 D
0 -7 D
-1 0 D
1 -34 D
1 0 D
1 -7 D
1 -3 D
1 0 D
2 -6 D
1 0 D
0 -1 D
1 0 D
0 -1 D
2 0 D
0 -1 D
3 0 D
0 1 D
3 2 D
0 1 D
1 0 D
0 1 D
1 0 D
0 2 D
1 0 D
4 19 D
P S
V 4320 3360 T 97.275 R
N 0 0 M 889 0 D S
U
V 4192 4360 T 97.275 R
0 0 M
-150 40 D
30 -40 D
-30 -40 D
P clip fs P S 
U
4134 5100 M
-1 54 D
-3 26 D
-1 3 D
-1 0 D
0 1 D
-1 0 D
-2 -15 D
-1 0 D
-2 -66 D
1 -59 D
3 -26 D
1 0 D
0 -2 D
2 0 D
0 3 D
1 0 D
0 5 D
1 0 D
2 43 D
1 31 D
P S
V 4320 3840 T 98.6698 R
N 0 0 M 1154 0 D S
U
V 4128 5100 T 98.6698 R
0 0 M
-150 40 D
30 -40 D
-30 -40 D
P clip fs P S 
U
4091 5639 M
-1 29 D
-5 30 D
-6 20 D
-8 15 D
-1 2 D
-1 0 D
-1 2 D
-1 0 D
0 1 D
-1 0 D
0 1 D
-1 0 D
0 1 D
-2 0 D
0 1 D
-2 0 D
0 1 D
-8 0 D
0 -1 D
-4 -1 D
0 -1 D
-1 0 D
0 -1 D
-3 -2 D
0 -1 D
-1 0 D
-4 -7 D
-1 0 D
-3 -8 D
-4 -10 D
-6 -29 D
-3 -34 D
1 -38 D
5 -30 D
6 -18 D
5 -11 D
7 -9 D
1 0 D
0 -1 D
1 0 D
0 -1 D
7 -2 D
7 1 D
0 1 D
2 0 D
0 1 D
1 0 D
0 1 D
1 0 D
0 1 D
3 2 D
3 6 D
1 0 D
7 17 D
6 24 D
3 29 D
1 18 D
P S
V 4320 4320 T 101.275 R
N 0 0 M 1225 0 D S
U
V 4057 5639 T 101.275 R
0 0 M
-150 40 D
30 -40 D
-30 -40 D
P clip fs P S 
U
4062 5962 M
-2 23 D
-5 20 D
-8 20 D
-5 7 D
-2 5 D
-6 8 D
-4 3 D
-4 5 D
-11 8 D
-4 3 D
-3 1 D
-14 5 D
-18 2 D
-17 -4 D
-17 -9 D
-11 -9 D
-18 -25 D
-9 -24 D
-4 -20 D
-1 -33 D
3 -19 D
7 -21 D
10 -19 D
14 -18 D
15 -11 D
3 -1 D
12 -5 D
13 -2 D
18 1 D
14 5 D
14 9 D
5 4 D
12 14 D
3 4 D
2 5 D
4 6 D
9 24 D
4 26 D
1 10 D
P S
V 4320 4800 T 106.308 R
N 0 0 M 1090 0 D S
U
V 3980 5962 T 106.308 R
0 0 M
-150 40 D
30 -40 D
-30 -40 D
P clip fs P S 
U
4938 795 M
-1 14 D
-5 14 D
-3 7 D
-9 14 D
-3 2 D
-1 2 D
-2 1 D
-2 3 D
-2 1 D
-1 2 D
-10 7 D
-1 2 D
-19 11 D
-30 11 D
-27 5 D
-36 1 D
-31 -5 D
-26 -9 D
-12 -5 D
-15 -9 D
-1 -2 D
-7 -5 D
-3 -2 D
-1 -2 D
-3 -2 D
-1 -2 D
-2 -1 D
-2 -3 D
-2 -1 D
-11 -17 D
-5 -15 D
-2 -15 D
1 -15 D
3 -10 D
7 -15 D
11 -15 D
2 -1 D
2 -3 D
2 -1 D
1 -2 D
20 -14 D
28 -13 D
25 -7 D
38 -3 D
27 2 D
18 4 D
22 7 D
27 14 D
13 10 D
1 2 D
3 2 D
1 2 D
2 1 D
15 22 D
5 14 D
2 15 D
P S
V 4800 0 T 90 R
N 0 0 M 675 0 D S
U
V 4800 795 T 90 R
0 0 M
-150 40 D
30 -40 D
-30 -40 D
P clip fs P S 
U
4814 1284 M
-1 27 D
-3 17 D
-1 0 D
-3 12 D
-1 0 D
-1 4 D
-1 0 D
0 1 D
-1 0 D
-2 4 D
-2 0 D
0 1 D
-7 -1 D
0 -1 D
-1 0 D
0 -1 D
-1 0 D
-2 -4 D
-1 0 D
-2 -7 D
-1 0 D
0 -3 D
-1 0 D
-4 -25 D
-2 -29 D
3 -31 D
5 -18 D
1 0 D
0 -2 D
1 0 D
1 -4 D
1 0 D
0 -1 D
1 0 D
0 -2 D
1 0 D
0 -1 D
7 -2 D
0 1 D
2 0 D
0 1 D
1 0 D
0 1 D
1 0 D
0 1 D
1 0 D
0 1 D
1 0 D
4 11 D
1 0 D
2 11 D
1 0 D
3 32 D
0 6 D
P S
V 4800 480 T 90.3363 R
N 0 0 M 684 0 D S
U
V 4795 1284 T 90.3363 R
0 0 M
-150 40 D
30 -40 D
-30 -40 D
P clip fs P S 
U
4876 1779 M
-2 16 D
-9 17 D
-13 14 D
-3 1 D
-6 5 D
-20 10 D
-22 5 D
-23 2 D
-25 -3 D
-22 -8 D
-13 -7 D
-14 -11 D
-8 -10 D
-8 -17 D
-2 -16 D
3 -15 D
9 -17 D
8 -9 D
19 -13 D
10 -5 D
22 -6 D
16 -2 D
8 -1 D
26 3 D
29 10 D
7 5 D
3 1 D
6 5 D
10 9 D
4 5 D
1 3 D
4 6 D
4 13 D
1 9 D
P S
V 4800 960 T 91.3174 R
N 0 0 M 699 0 D S
U
V 4781 1779 T 91.3174 R
0 0 M
-150 40 D
30 -40 D
-30 -40 D
P clip fs P S 
U
4775 2301 M
-2 23 D
-2 9 D
-1 0 D
0 3 D
-1 0 D
0 3 D
-1 0 D
0 2 D
-1 0 D
-2 5 D
-1 0 D
0 1 D
-1 0 D
0 1 D
-1 0 D
0 1 D
-2 0 D
0 1 D
-4 0 D
0 -1 D
-2 0 D
0 -1 D
-1 0 D
0 -1 D
-1 0 D
0 -1 D
-1 0 D
0 -1 D
-1 0 D
-1 -3 D
-1 0 D
0 -2 D
-1 0 D
0 -3 D
-1 0 D
0 -3 D
-1 0 D
0 -3 D
-1 0 D
-3 -28 D
1 -21 D
1 -6 D
1 0 D
0 -4 D
1 0 D
2 -9 D
1 0 D
0 -2 D
1 0 D
0 -2 D
1 0 D
0 -1 D
1 0 D
0 -1 D
1 0 D
2 -3 D
1 0 D
0 -1 D
5 0 D
0 1 D
2 0 D
0 1 D
1 0 D
0 1 D
1 0 D
0 1 D
1 0 D
1 3 D
1 0 D
0 2 D
1 0 D
0 2 D
1 0 D
0 3 D
1 0 D
0 3 D
1 0 D
3 22 D
P S
V 4800 1440 T 92.8047 R
N 0 0 M 742 0 D S
U
V 4758 2301 T 92.8047 R
0 0 M
-150 40 D
30 -40 D
-30 -40 D
P clip fs P S 
U
4865 2798 M
-214 1 D
-66 -1 D
275 -1 D
P S
V 4800 1920 T 94.8572 R
N 0 0 M 761 0 D S
U
V 4725 2798 T 94.8572 R
0 0 M
-150 40 D
30 -40 D
-30 -40 D
P clip fs P S 
U
4711 3388 M
-1 23 D
-5 23 D
-6 14 D
-1 0 D
0 2 D
-1 0 D
-1 3 D
-1 0 D
0 1 D
-1 0 D
0 1 D
-1 0 D
0 1 D
-1 0 D
0 1 D
-7 2 D
-7 -1 D
0 -1 D
-1 0 D
0 -1 D
-1 0 D
0 -1 D
-3 -2 D
0 -1 D
-1 0 D
-4 -9 D
-1 0 D
-6 -19 D
-3 -28 D
1 -34 D
6 -25 D
1 -3 D
1 0 D
1 -4 D
1 0 D
0 -2 D
1 0 D
3 -6 D
1 0 D
0 -1 D
1 0 D
0 -1 D
1 0 D
0 -1 D
1 0 D
0 -1 D
2 0 D
0 -1 D
2 0 D
0 -1 D
7 0 D
0 1 D
5 2 D
3 5 D
1 0 D
7 15 D
5 22 D
2 25 D
P S
V 4800 2400 T 96.6798 R
N 0 0 M 874 0 D S
U
V 4684 3388 T 96.6798 R
0 0 M
-150 40 D
30 -40 D
-30 -40 D
P clip fs P S 
U
4692 3796 M
-1 17 D
-8 21 D
-8 12 D
-2 1 D
-1 2 D
-3 2 D
0 1 D
-5 3 D
0 1 D
-13 6 D
-17 3 D
-16 -3 D
-5 -2 D
0 -1 D
-8 -4 D
0 -1 D
-5 -3 D
-1 -2 D
-2 -1 D
-1 -2 D
-2 -1 D
-9 -14 D
-5 -16 D
-2 -15 D
1 -20 D
6 -18 D
7 -11 D
4 -5 D
1 0 D
5 -6 D
13 -8 D
11 -3 D
16 -1 D
14 4 D
0 1 D
8 4 D
0 1 D
5 3 D
0 1 D
4 3 D
0 1 D
2 1 D
10 15 D
6 20 D
1 13 D
P S
V 4800 2880 T 100.21 R
N 0 0 M 811 0 D S
U
V 4635 3796 T 100.21 R
0 0 M
-150 40 D
30 -40 D
-30 -40 D
P clip fs P S 
U
4674 4403 M
-1 14 D
-5 18 D
-9 16 D
-6 9 D
-6 5 D
-2 3 D
-13 9 D
-12 7 D
-19 6 D
-23 3 D
-20 -2 D
-19 -6 D
-11 -5 D
-17 -12 D
-2 -3 D
-6 -5 D
-8 -11 D
-4 -6 D
-6 -16 D
-3 -19 D
1 -22 D
7 -19 D
5 -8 D
1 -3 D
11 -14 D
18 -14 D
5 -2 D
15 -7 D
26 -5 D
23 1 D
20 5 D
22 12 D
12 10 D
3 4 D
3 2 D
4 5 D
1 3 D
4 5 D
2 5 D
4 8 D
4 18 D
1 10 D
P S
V 4800 3360 T 102.022 R
N 0 0 M 947 0 D S
U
V 4578 4403 T 102.022 R
0 0 M
-150 40 D
30 -40 D
-30 -40 D
P clip fs P S 
U
4528 5104 M
-2 52 D
-4 29 D
-2 8 D
-1 0 D
-1 5 D
-1 2 D
-1 0 D
-1 2 D
-1 0 D
0 1 D
-1 0 D
0 -1 D
-2 0 D
-1 -3 D
-1 0 D
-5 -21 D
-3 -29 D
-2 -49 D
2 -50 D
5 -32 D
1 -4 D
1 0 D
2 -7 D
1 0 D
0 -1 D
1 0 D
0 -1 D
3 0 D
0 1 D
1 0 D
1 3 D
1 0 D
4 17 D
3 23 D
2 31 D
1 22 D
P S
V 4800 3840 T 102.776 R
N 0 0 M 1176 0 D S
U
V 4513 5104 T 102.776 R
0 0 M
-150 40 D
30 -40 D
-30 -40 D
P clip fs P S 
U
4515 5225 M
0 2 D
-1 0 D
-1 3 D
-3 1 D
0 1 D
-4 1 D
0 1 D
-2 0 D
0 1 D
-10 2 D
0 1 D
-23 3 D
-35 2 D
-35 -3 D
-20 -5 D
-2 -1 D
0 -1 D
-4 -1 D
0 -1 D
-3 -1 D
0 -1 D
-1 0 D
0 -2 D
-1 0 D
0 -3 D
1 0 D
0 -2 D
1 0 D
0 -1 D
1 0 D
0 -1 D
3 -1 D
0 -1 D
4 -1 D
0 -1 D
3 0 D
0 -1 D
7 -1 D
0 -1 D
22 -3 D
27 -2 D
32 1 D
23 4 D
5 1 D
0 1 D
3 0 D
0 1 D
5 1 D
0 1 D
2 0 D
0 1 D
3 1 D
0 1 D
1 0 D
0 1 D
1 0 D
0 2 D
1 0 D
P S
V 4800 4320 T 111.55 R
N 0 0 M 853 0 D S
U
V 4442 5225 T 111.55 R
0 0 M
-150 40 D
30 -40 D
-30 -40 D
P clip fs P S 
U
4440 5863 M
0 3 D
-1 0 D
-1 3 D
-1 0 D
0 1 D
-1 0 D
0 1 D
-15 7 D
-11 3 D
-20 3 D
-46 1 D
-28 -5 D
-7 -2 D
0 -1 D
-5 -1 D
-6 -3 D
0 -1 D
-1 0 D
0 -1 D
-3 -1 D
0 -1 D
-1 0 D
0 -2 D
-1 0 D
0 -2 D
-1 0 D
0 -4 D
1 0 D
0 -2 D
1 0 D
3 -4 D
1 0 D
0 -1 D
5 -2 D
0 -1 D
7 -2 D
0 -1 D
31 -6 D
45 -1 D
30 5 D
12 4 D
0 1 D
2 0 D
0 1 D
2 0 D
0 1 D
2 0 D
0 1 D
3 1 D
1 2 D
1 0 D
1 3 D
1 0 D
P S
V 4800 4800 T 112.224 R
N 0 0 M 1028 0 D S
U
V 4366 5863 T 112.224 R
0 0 M
-150 40 D
30 -40 D
-30 -40 D
P clip fs P S 
U
PSL_cliprestore
25 W
0 A
2 setlinecap
N 0 4800 M 0 -4800 D S
/PSL_A0_y 83 def
/PSL_A1_y 0 def
8 W
N 0 0 M -83 0 D S
N 0 1200 M -83 0 D S
N 0 2400 M -83 0 D S
N 0 3600 M -83 0 D S
N 0 4800 M -83 0 D S
/PSL_AH0 0
/MM {neg exch M} def
PSL_font_encode 0 get 0 eq {ISOLatin1+_Encoding /Helvetica /Helvetica PSL_reencode PSL_font_encode 0 1 put} if
200 F0
(0.00) sw mx
(0.25) sw mx
(0.50) sw mx
(0.75) sw mx
(1.00) sw mx
def
/PSL_A0_y PSL_A0_y 83 add def
0 PSL_A0_y MM
(0.00) mr Z
1200 PSL_A0_y MM
(0.25) mr Z
2400 PSL_A0_y MM
(0.50) mr Z
3600 PSL_A0_y MM
(0.75) mr Z
4800 PSL_A0_y MM
(1.00) mr Z
/PSL_A0_y PSL_A0_y PSL_AH0 add def
N 0 240 M -42 0 D S
N 0 480 M -42 0 D S
N 0 720 M -42 0 D S
N 0 960 M -42 0 D S
N 0 1440 M -42 0 D S
N 0 1680 M -42 0 D S
N 0 1920 M -42 0 D S
N 0 2160 M -42 0 D S
N 0 2640 M -42 0 D S
N 0 2880 M -42 0 D S
N 0 3120 M -42 0 D S
N 0 3360 M -42 0 D S
N 0 3840 M -42 0 D S
N 0 4080 M -42 0 D S
N 0 4320 M -42 0 D S
N 0 4560 M -42 0 D S
/PSL_LH 0 def /PSL_L_y PSL_A0_y PSL_A1_y mx def
4800 0 T
25 W
N 0 4800 M 0 -4800 D S
/PSL_A0_y 83 def
/PSL_A1_y 0 def
8 W
N 0 0 M 83 0 D S
N 0 1200 M 83 0 D S
N 0 2400 M 83 0 D S
N 0 3600 M 83 0 D S
N 0 4800 M 83 0 D S
N 0 240 M 42 0 D S
N 0 480 M 42 0 D S
N 0 720 M 42 0 D S
N 0 960 M 42 0 D S
N 0 1440 M 42 0 D S
N 0 1680 M 42 0 D S
N 0 1920 M 42 0 D S
N 0 2160 M 42 0 D S
N 0 2640 M 42 0 D S
N 0 2880 M 42 0 D S
N 0 3120 M 42 0 D S
N 0 3360 M 42 0 D S
N 0 3840 M 42 0 D S
N 0 4080 M 42 0 D S
N 0 4320 M 42 0 D S
N 0 4560 M 42 0 D S
/PSL_LH 0 def /PSL_L_y PSL_A0_y PSL_A1_y mx def
-4800 0 T
25 W
N 0 0 M 4800 0 D S
/PSL_A0_y 83 def
/PSL_A1_y 0 def
8 W
N 0 0 M 0 -83 D S
N 1200 0 M 0 -83 D S
N 2400 0 M 0 -83 D S
N 3600 0 M 0 -83 D S
N 4800 0 M 0 -83 D S
/PSL_AH0 0
/MM {neg M} def
(0.00) sh mx
(0.25) sh mx
(0.50) sh mx
(0.75) sh mx
(1.00) sh mx
def
/PSL_A0_y PSL_A0_y 83 add PSL_AH0 add def
0 PSL_A0_y MM
(0.00) bc Z
1200 PSL_A0_y MM
(0.25) bc Z
2400 PSL_A0_y MM
(0.50) bc Z
3600 PSL_A0_y MM
(0.75) bc Z
4800 PSL_A0_y MM
(1.00) bc Z
N 240 0 M 0 -42 D S
N 480 0 M 0 -42 D S
N 720 0 M 0 -42 D S
N 960 0 M 0 -42 D S
N 1440 0 M 0 -42 D S
N 1680 0 M 0 -42 D S
N 1920 0 M 0 -42 D S
N 2160 0 M 0 -42 D S
N 2640 0 M 0 -42 D S
N 2880 0 M 0 -42 D S
N 3120 0 M 0 -42 D S
N 3360 0 M 0 -42 D S
N 3840 0 M 0 -42 D S
N 4080 0 M 0 -42 D S
N 4320 0 M 0 -42 D S
N 4560 0 M 0 -42 D S
/PSL_LH 0 def /PSL_L_y PSL_A0_y PSL_A1_y mx def
0 4800 T
25 W
N 0 0 M 4800 0 D S
/PSL_A0_y 83 def
/PSL_A1_y 0 def
8 W
N 0 0 M 0 83 D S
N 1200 0 M 0 83 D S
N 2400 0 M 0 83 D S
N 3600 0 M 0 83 D S
N 4800 0 M 0 83 D S
N 240 0 M 0 42 D S
N 480 0 M 0 42 D S
N 720 0 M 0 42 D S
N 960 0 M 0 42 D S
N 1440 0 M 0 42 D S
N 1680 0 M 0 42 D S
N 1920 0 M 0 42 D S
N 2160 0 M 0 42 D S
N 2640 0 M 0 42 D S
N 2880 0 M 0 42 D S
N 3120 0 M 0 42 D S
N 3360 0 M 0 42 D S
N 3840 0 M 0 42 D S
N 4080 0 M 0 42 D S
N 4320 0 M 0 42 D S
N 4560 0 M 0 42 D S
/PSL_LH 0 def /PSL_L_y PSL_A0_y PSL_A1_y mx def
0 -4800 T
0 setlinecap
%%EndObject
%%PageTrailer
U
showpage

%%Trailer

end
%%EOF
